<?xml version="1.0" encoding="UTF-8" standalone="no"?>
<!-- https://cristalix.ru/ -->

<svg xmlns:xlink="http://www.w3.org/1999/xlink" viewBox="0 0 1000 1000" xmlns="http://www.w3.org/2000/svg">
 <rect width="1000" height="1000" fill="rgba(0,0,0,0)"/>
 <g transform="translate(500 0)">
  <g transform="translate(0 500)">
   <g transform="translate(0 0)">
    <g transform="translate(0 0)">
     <g transform="rotate(0)">
      <g transform="scale(1 1)">
       <g transform="scale(1 1)">
        <g transform="skewX(0) skewY(0)">
         <g opacity="1" transform="translate(-500 0)">
          <g transform="translate(0 -500)">
           <g>
            <g transform="translate(494.311 500)">
             <g transform="translate(5.68911 0)">
              <g transform="rotate(0)">
               <g transform="scale(0.988749 1)">
                <g transform="skewX(0) skewY(0)">
                 <g opacity="1" transform="translate(-494.311 -500)">
                  <g>
                   <g transform="translate(494.311 500)">
                    <g transform="translate(0 0)">
                     <g transform="rotate(0)">
                      <g transform="scale(1 1)">
                       <g transform="skewX(0) skewY(0)">
                        <g opacity="1" transform="translate(-494.311 -500)">
                         <rect stroke="none" stroke-width="0" width="1011.38" height="1000" x="-11.379" y="0" fill="none"/>
                        </g>
                       </g>
                      </g>
                     </g>
                    </g>
                   </g>
                  </g>
                 </g>
                </g>
               </g>
              </g>
             </g>
            </g>
            <g transform="translate(500.003 500.001)">
             <g transform="translate(0 0)">
              <g transform="rotate(0)">
               <g transform="scale(1 1)">
                <g transform="skewX(0) skewY(0)">
                 <g opacity="1" transform="translate(-500.003 -500.001)">
                  <g>
                   <g transform="translate(676.446 0)">
                    <g transform="translate(0 155.327)">
                     <g transform="translate(-176.448 0)">
                      <g>
                       <animateTransform dur="2.08333s" attributeName="transform" calcMode="spline" repeatCount="indefinite" keySplines="0 0 1 1;0 0 1 1;0 0 1 1;0 0 1 1;0 0 1 1;0 0 1 1" type="translate" values="0 184.48;0 184.48;0 180.48;0 190.98;0 178.98;0 187.88;0 187.88" keyTimes="0;0.18;0.38;0.44;0.5;0.56;1"/>
                       <g transform="rotate(0)">
                        <g transform="scale(1.47728 1)">
                         <g transform="scale(1 1.47728)">
                          <g transform="skewX(0) skewY(0)">
                           <g opacity="1" transform="translate(-676.446 0)">
                            <g transform="translate(0 -155.327)">
                             <g>
                              <g transform="translate(676.446 155.327)">
                               <g transform="translate(0 0)">
                                <g transform="rotate(0)">
                                 <g transform="scale(1 1)">
                                  <g transform="skewX(0) skewY(0)">
                                   <g opacity="1" transform="translate(-676.446 -155.327)">
                                    <ellipse stroke="none" stroke-width="0" cx="676.446" ry="100.306" rx="100.306" fill="#ffffff" cy="155.327"/>
                                   </g>
                                  </g>
                                 </g>
                                </g>
                               </g>
                              </g>
                             </g>
                            </g>
                           </g>
                          </g>
                         </g>
                        </g>
                       </g>
                      </g>
                     </g>
                    </g>
                   </g>
                   <g transform="translate(918.418 613.229)">
                    <g transform="translate(-418.415 0.476431)">
                     <g transform="rotate(0)">
                      <g transform="scale(1.94598 1.94598)">
                       <g transform="skewX(0) skewY(0)">
                        <g opacity="1" transform="translate(-918.418 -613.229)">
                         <g>
                          <g transform="translate(918.418 613.229)">
                           <g transform="translate(0 0)">
                            <g transform="rotate(0)">
                             <g transform="scale(1 1)">
                              <g transform="skewX(0) skewY(0)">
                               <g opacity="1" transform="translate(-918.418 -613.229)">
                                <path stroke="none" stroke-width="0" d="M829.068 513.583C834.301 511.968 839.964 514.089 842.85 518.743C858.475 544.092 886.488 561.006 918.42 561.006C950.351 561.006 978.364 544.092 993.981 518.738C996.87 514.081 1002.54 511.959 1007.77 513.575C1048.35 525.977 1077.86 563.718 1077.86 608.352C1077.86 608.352 1077.86 670.812 1077.86 670.812C1077.86 694.343 1058.79 713.42 1035.26 713.42C1035.26 713.42 801.584 713.42 801.584 713.42C778.052 713.42 758.976 694.343 758.976 670.812C758.976 670.812 758.976 608.352 758.976 608.352C758.976 563.718 788.491 525.977 829.068 513.583Z" fill="#ffffff"/>
                               </g>
                              </g>
                             </g>
                            </g>
                           </g>
                          </g>
                         </g>
                        </g>
                       </g>
                      </g>
                     </g>
                    </g>
                   </g>
                   <g transform="translate(746.29 0)">
                    <g>
                     <animateTransform dur="2.08333s" attributeName="transform" calcMode="spline" repeatCount="indefinite" keySplines="0 0 1 1;0 0 1 1;0 0 1 1" type="translate" values="0 462.209;0 462.209;0 493.709;0 493.709" keyTimes="0;0.18;0.6;1"/>
                     <g>
                      <animateTransform dur="2.08333s" attributeName="transform" calcMode="spline" repeatCount="indefinite" keySplines="0 0 1 1;0 0 1 1;0 0 1 1;0 0 1 1;0 0 1 1" type="translate" values="-246.289 0;-246.289 0;-571.389 0;-571.289 0;-232.389 0;-232.389 0" keyTimes="0;0.18;0.32;0.6;0.74;1"/>
                      <g>
                       <animateTransform dur="2.08333s" attributeName="transform" calcMode="spline" repeatCount="indefinite" keySplines="0 0 1 1;0 0 1 1;0 0 1 1;0 0 1 1;0 0 1 1;0 0 1 1;0 0 1 1;0 0 1 1;0 0 1 1;0 0 1 1;0 0 1 1" type="translate" values="0 -122.698;0 -122.698;0 -105.148;0 -126.212;0 -100.659;0 -111.512;0 -118.646;0 -104.534;0 -97.5636;0 -116.598;0 -135.398;0 -135.398" keyTimes="0;0.18;0.36;0.42;0.48;0.54;0.6;0.64;0.68;0.72;0.74;1"/>
                       <g>
                        <animateTransform dur="2.08333s" attributeName="transform" calcMode="spline" repeatCount="indefinite" keySplines="0 0 1 1;0 0 1 1;0 0.333333 1 0.666667;0 0.333333 1 0.666667;0 0 1 1;0 0 1 1" type="rotate" values="121.6;121.6;0;0;0;-23.8;-23.8" keyTimes="0;0.18;0.32;0.54;0.6;0.74;1"/>
                        <g>
                         <animateTransform dur="2.08333s" attributeName="transform" calcMode="spline" repeatCount="indefinite" keySplines="0 0 1 1;0 0 1 1;0 0.333333 1 0.666667;0 0 1 1;0 0 1 1" type="scale" values="1 1;1 1;2 1;2 1;1 1;1 1" keyTimes="0;0.18;0.32;0.6;0.74;1"/>
                         <g>
                          <animateTransform dur="2.08333s" attributeName="transform" calcMode="spline" repeatCount="indefinite" keySplines="0 0 1 1;0 0 1 1;0 0.333333 1 0.666667;0 0 1 1;0 0 1 1" type="scale" values="1 1;1 1;1 2;1 2;1 1;1 1" keyTimes="0;0.18;0.32;0.6;0.74;1"/>
                          <g>
                           <animateTransform dur="2.08333s" attributeName="transform" calcMode="spline" repeatCount="indefinite" keySplines="0 0 1 1;0 0.333333 1 0.666667;0 0 1 1;0 0 1 1" type="skewX" values="0;0;0;11.25;11.25" keyTimes="0;0.18;0.6;0.74;1"/>
                           <animateTransform dur="2.08333s" attributeName="transform" calcMode="spline" repeatCount="indefinite" keySplines="0 0 1 1;0 0 1 1;0 0 1 1" type="skewY" values="18.45;18.45;0;0" keyTimes="0;0.18;0.32;1"/>
                           <g opacity="1" transform="translate(-746.29 0)">
                            <g>
                             <animateTransform dur="2.08333s" attributeName="transform" calcMode="spline" repeatCount="indefinite" keySplines="0 0 1 1;0 0 1 1;0 0 1 1" type="translate" values="0 -462.209;0 -462.209;0 -493.709;0 -493.709" keyTimes="0;0.18;0.6;1"/>
                             <g>
                              <g transform="translate(746.29 462.209)">
                               <g transform="translate(0 0)">
                                <g transform="rotate(0)">
                                 <g transform="scale(1 1)">
                                  <g transform="skewX(0) skewY(0)">
                                   <g opacity="1" transform="translate(-746.29 -462.209)">
                                    <path stroke="none" stroke-width="0" d="M758.976 447.317C758.976 447.902 759.208 448.463 759.622 448.877C760.036 449.29 760.597 449.523 761.182 449.523C761.182 449.523 804.376 449.523 804.376 449.523C805.313 449.523 806.212 449.895 806.874 450.557C807.537 451.22 807.909 452.118 807.909 453.055C807.909 457.892 807.909 466.526 807.909 471.363C807.909 472.299 807.537 473.198 806.874 473.86C806.212 474.523 805.313 474.895 804.376 474.895C794.866 474.895 768.918 474.895 761.182 474.895C760.597 474.895 760.036 475.127 759.622 475.541C759.208 475.955 758.976 476.516 758.976 477.101C758.976 477.101 758.976 520.295 758.976 520.295C758.976 521.232 758.604 522.131 757.941 522.793C757.279 523.456 756.38 523.828 755.443 523.828C750.607 523.828 741.973 523.828 737.136 523.828C736.199 523.828 735.301 523.456 734.638 522.793C733.976 522.131 733.604 521.232 733.604 520.295C733.604 510.785 733.604 484.837 733.604 477.101C733.604 476.516 733.371 475.955 732.958 475.541C732.544 475.127 731.983 474.895 731.398 474.895C731.398 474.895 688.203 474.895 688.203 474.895C687.267 474.895 686.368 474.523 685.706 473.86C685.043 473.198 684.671 472.299 684.671 471.363C684.671 466.526 684.671 457.892 684.671 453.055C684.671 452.118 685.043 451.22 685.706 450.557C686.368 449.895 687.267 449.523 688.203 449.523C697.714 449.523 723.662 449.523 731.398 449.523C731.983 449.523 732.544 449.29 732.958 448.877C733.371 448.463 733.604 447.902 733.604 447.317C733.604 447.317 733.604 404.122 733.604 404.122C733.604 403.186 733.976 402.287 734.638 401.625C735.301 400.962 736.199 400.59 737.136 400.59C741.973 400.59 750.607 400.59 755.443 400.59C756.38 400.59 757.279 400.962 757.941 401.625C758.604 402.287 758.976 403.186 758.976 404.122C758.976 413.633 758.976 439.581 758.976 447.317Z" fill="#ffffff"/>
                                   </g>
                                  </g>
                                 </g>
                                </g>
                               </g>
                              </g>
                             </g>
                            </g>
                           </g>
                          </g>
                         </g>
                        </g>
                       </g>
                      </g>
                     </g>
                    </g>
                   </g>
                   <g transform="translate(780.041 0)">
                    <g transform="translate(0 286.371)">
                     <g>
                      <animateTransform dur="2.08333s" attributeName="transform" calcMode="spline" repeatCount="indefinite" keySplines="0 0 1 1;0 0.333333 1 0.666667;0 0 1 1;0 0 1 1;0 0 1 1;0 0 1 1;0 0 1 1;0 0 1 1" type="translate" values="-387.32 0;-387.32 0;-387.32 0;-281.12 0;-267.366 0;-198.017 0;-164.918 0;-188.62 0;-188.62 0" keyTimes="0;0;0.28;0.38;0.66;0.72;0.74;0.76;1"/>
                      <g>
                       <animateTransform dur="2.08333s" attributeName="transform" calcMode="spline" repeatCount="indefinite" keySplines="0 0 1 1;0 0.333333 1 0.666667;0 0 1 1;0 0 1 1;0 0 1 1;0 0 1 1;0 0 1 1;0 0 1 1" type="translate" values="0 101.785;0 101.785;0 101.785;0 134.085;0 151.285;0 147.085;0 117.305;0 107.485;0 107.485" keyTimes="0;0;0.28;0.38;0.56;0.66;0.74;0.76;1"/>
                       <g>
                        <animateTransform dur="2.08333s" attributeName="transform" calcMode="spline" repeatCount="indefinite" keySplines="0 0 1 1;0 0 1 1;0 0 1 1;0 0 1 1;0 0 1 1;0 0 1 1;0 0 1 1;0 0 1 1" type="rotate" values="153.4;153.4;152.7;105;100;45.2594;36.2297;51.6;51.6" keyTimes="0;0.18;0.28;0.38;0.66;0.72;0.74;0.76;1"/>
                        <g>
                         <animateTransform dur="2.08333s" attributeName="transform" calcMode="spline" repeatCount="indefinite" keySplines="0 0 1 1;0 0 1 1;0 0 1 1;0 0 1 1;0 0 1 1;0 0.333333 1 0.666667;0 0 1 1" type="scale" values="-0.0206809 1;-0.0206809 1;3.66932 1;3.669 1;2.40755 1;0 1;0 1;0 1" keyTimes="0;0.28;0.38;0.66;0.72;0.74;0.76;1"/>
                         <g>
                          <animateTransform dur="2.08333s" attributeName="transform" calcMode="spline" repeatCount="indefinite" keySplines="0 0 1 1;0 0 1 1;0 0 1 1;0 0 1 1;0 0 1 1" type="scale" values="1 3.66932;1 3.66932;1 3.669;1 3.68905;1 2.91905;1 2.91905" keyTimes="0;0.38;0.66;0.72;0.74;1"/>
                          <g transform="skewX(0)">
                           <animateTransform dur="2.08333s" attributeName="transform" calcMode="spline" repeatCount="indefinite" keySplines="0 0 1 1;0 0 1 1;0 0 1 1" type="skewY" values="0;0;-16.2;-16.2" keyTimes="0;0.38;0.74;1"/>
                           <g opacity="1" transform="translate(-780.041 0)">
                            <g transform="translate(0 -286.371)">
                             <g>
                              <g transform="translate(780.041 286.371)">
                               <g transform="translate(0 0)">
                                <g transform="rotate(0)">
                                 <g transform="scale(1 1)">
                                  <g transform="skewX(0) skewY(0)">
                                   <g opacity="1" transform="translate(-780.041 -286.371)">
                                    <path stroke="none" stroke-width="0" d="M782.671 305.296C783.427 305.631 784.289 305.633 785.046 305.303C785.804 304.972 786.389 304.339 786.657 303.557C787.762 300.177 788.336 296.638 788.336 293.068C788.336 283.352 784.093 274.18 776.82 267.896C776.192 267.361 775.367 267.114 774.548 267.216C773.729 267.319 772.991 267.761 772.514 268.435C772.432 268.53 772.359 268.632 772.287 268.734C771.407 269.978 771.619 271.687 772.775 272.679C778.659 277.771 782.086 285.2 782.086 293.068C782.086 295.938 781.629 298.783 780.737 301.498C780.248 302.936 780.938 304.51 782.327 305.125C782.436 305.192 782.554 305.244 782.671 305.296Z" fill="#101313"/>
                                   </g>
                                  </g>
                                 </g>
                                </g>
                               </g>
                              </g>
                             </g>
                            </g>
                           </g>
                          </g>
                         </g>
                        </g>
                       </g>
                      </g>
                     </g>
                    </g>
                   </g>
                  </g>
                 </g>
                </g>
               </g>
              </g>
             </g>
            </g>
           </g>
          </g>
         </g>
        </g>
       </g>
      </g>
     </g>
    </g>
   </g>
  </g>
 </g>
 <defs/>
</svg>
