<?xml version="1.0" encoding="UTF-8" standalone="no"?>
<!-- https://cristalix.ru/ -->
<!DOCTYPE svg PUBLIC "-//W3C//DTD SVG 1.1//EN" "http://www.w3.org/Graphics/SVG/1.1/DTD/svg11.dtd">
<svg width="100%" height="100%" viewBox="0 0 1000 1000" version="1.1" xmlns="http://www.w3.org/2000/svg" xmlns:xlink="http://www.w3.org/1999/xlink" xml:space="preserve" xmlns:serif="http://www.serif.com/" style="fill-rule:evenodd;clip-rule:evenodd;stroke-linejoin:round;stroke-miterlimit:2;">
    <path d="M340.25,623.535C335.503,611.797 324.108,604.114 311.446,604.114L209.337,604.114C196.675,604.114 185.28,611.797 180.533,623.535C177.052,632.144 172.965,642.25 169.483,650.859C164.736,662.597 153.341,670.28 140.68,670.28C111.818,670.28 63.353,670.28 63.353,670.28C63.353,670.28 174.156,419.27 205.509,348.243C210.479,336.984 221.626,329.72 233.933,329.72C249.98,329.72 272.295,329.72 288.336,329.72C300.629,329.72 311.766,336.968 316.744,348.209C348.179,419.19 459.376,670.28 459.376,670.28L380.103,670.28C367.442,670.28 356.047,662.597 351.3,650.859C347.818,642.25 343.731,632.144 340.25,623.535ZM840.317,345.315C840.317,341.179 841.96,337.212 844.885,334.288C847.81,331.363 851.776,329.72 855.913,329.72C873.847,329.72 903.117,329.72 921.052,329.72C925.188,329.72 929.155,331.363 932.079,334.288C935.004,337.212 936.647,341.179 936.647,345.315C936.647,402.154 936.647,597.846 936.647,654.685C936.647,658.821 935.004,662.788 932.079,665.712C929.155,668.637 925.188,670.28 921.052,670.28C903.117,670.28 873.847,670.28 855.913,670.28C851.776,670.28 847.81,668.637 844.885,665.712C841.96,662.788 840.317,658.821 840.317,654.685C840.317,597.846 840.317,402.154 840.317,345.315ZM642.306,329.72C673.118,329.72 699.877,334.828 722.581,345.045C745.285,355.262 762.799,369.857 775.124,388.831C787.449,407.805 793.612,430.104 793.612,455.727C793.612,481.35 787.449,503.568 775.124,522.38C762.799,541.192 745.285,555.706 722.581,565.923C699.877,576.14 673.118,581.248 642.306,581.248L598.801,581.248C594.598,581.248 590.566,582.918 587.593,585.891C584.621,588.863 582.951,592.895 582.951,597.099C582.951,613.364 582.951,638.513 582.951,654.685C582.951,658.821 581.308,662.788 578.383,665.712C575.458,668.637 571.492,670.28 567.355,670.28C549.421,670.28 520.151,670.28 502.216,670.28C498.08,670.28 494.113,668.637 491.189,665.712C488.264,662.788 486.621,658.821 486.621,654.685C486.621,597.846 486.621,402.154 486.621,345.315C486.621,341.179 488.264,337.212 491.189,334.288C494.113,331.363 498.08,329.72 502.216,329.72C541.664,329.72 642.306,329.72 642.306,329.72ZM451.509,346.369C451.238,337.096 443.643,329.72 434.367,329.72L374.729,329.72C368.988,329.72 363.628,332.592 360.449,337.373C357.27,342.153 356.694,348.207 358.914,353.502C385.955,417.982 458.653,591.329 458.653,591.329C458.653,591.329 453.189,403.977 451.509,346.369ZM260.394,533.083C270.222,533.083 279.409,528.204 284.912,520.061C290.416,511.919 291.518,501.575 287.854,492.456C275.409,461.481 260.391,424.104 260.391,424.104C260.391,424.104 245.374,461.481 232.928,492.456C229.264,501.575 230.367,511.919 235.87,520.061C241.374,528.204 250.561,533.083 260.389,533.083C260.391,533.083 260.392,533.083 260.394,533.083ZM636.467,505.352C656.252,505.352 671.172,501.054 681.227,492.459C691.281,483.864 696.309,471.62 696.309,455.727C696.309,439.834 691.281,427.509 681.227,418.752C671.172,409.995 656.252,405.616 636.467,405.616L598.801,405.616C590.047,405.616 582.951,412.713 582.951,421.467C582.951,440.106 582.951,470.861 582.951,489.501C582.951,498.255 590.047,505.352 598.801,505.352C614.581,505.352 636.467,505.352 636.467,505.352Z" style="fill:white;fill-rule:nonzero;"/>
</svg>
