<?xml version="1.0" encoding="UTF-8" standalone="no"?>
<!-- https://cristalix.ru/ -->
<!DOCTYPE svg PUBLIC "-//W3C//DTD SVG 1.1//EN" "http://www.w3.org/Graphics/SVG/1.1/DTD/svg11.dtd">
<svg width="100%" height="100%" viewBox="0 0 1000 1000" version="1.1" xmlns="http://www.w3.org/2000/svg" xmlns:xlink="http://www.w3.org/1999/xlink" xml:space="preserve" xmlns:serif="http://www.serif.com/" style="fill-rule:evenodd;clip-rule:evenodd;stroke-linejoin:round;stroke-miterlimit:2;">
    <path d="M891.049,264.771C891.049,179.196 821.572,109.719 735.997,109.719L265.539,109.719C179.964,109.719 110.488,179.196 110.488,264.771L110.488,735.229C110.488,820.804 179.964,890.281 265.539,890.281L735.997,890.281C821.572,890.281 891.049,820.804 891.049,735.229L891.049,264.771ZM375.463,569.069C364.916,569.069 355.366,567.365 346.813,563.956C339.452,561.023 333.21,556.923 328.088,551.655C326.698,550.191 326.633,547.916 327.937,546.375C332.669,540.759 343.681,527.752 348.2,522.414C348.688,521.838 349.403,521.503 350.158,521.497C350.913,521.49 351.634,521.812 352.132,522.38C355.062,525.733 357.953,528.304 360.801,530.097C364.273,532.284 367.875,533.377 371.605,533.377C376.364,533.377 379.997,531.962 382.505,529.133C385.013,526.303 386.267,522.123 386.267,516.592L386.267,467.838C386.267,466.421 385.119,465.273 383.702,465.273C375.654,465.273 350.964,465.273 342.916,465.273C341.499,465.273 340.35,464.124 340.35,462.707C340.35,456.339 340.35,439.865 340.35,433.496C340.35,432.079 341.499,430.931 342.916,430.931C356.037,430.931 415.534,430.931 428.655,430.931C430.072,430.931 431.22,432.08 431.22,433.496C431.22,447.481 431.22,513.891 431.22,513.891C431.22,532.284 426.493,546.078 417.04,555.275C407.586,564.471 393.727,569.069 375.463,569.069ZM291.346,567.912C284.014,567.912 277.937,565.564 273.114,560.87C268.29,556.175 265.879,550.162 265.879,542.831C265.879,535.499 268.29,529.551 273.114,524.985C277.937,520.418 284.014,518.135 291.346,518.135C298.677,518.135 304.754,520.418 309.578,524.985C314.401,529.551 316.812,535.499 316.812,542.831C316.812,550.162 314.401,556.175 309.578,560.87C304.754,565.564 298.677,567.912 291.346,567.912ZM663.562,533.533C662.925,532.591 661.863,532.026 660.726,532.026L651.847,532.026C650.935,532.026 650.196,532.765 650.196,533.677C650.196,539.157 650.196,556.775 650.196,563.417C650.196,564.097 649.926,564.75 649.445,565.231C648.964,565.712 648.311,565.982 647.631,565.982C639.635,565.982 615.226,565.982 607.23,565.982C605.813,565.982 604.665,564.834 604.665,563.417C604.665,546.443 604.665,450.47 604.665,433.496C604.665,432.816 604.935,432.163 605.416,431.682C605.897,431.201 606.55,430.931 607.23,430.931C619.281,430.931 669.682,430.931 669.682,430.931C682.159,430.931 693.027,432.989 702.288,437.105C711.548,441.221 718.687,447.137 723.703,454.854C728.719,462.571 731.227,471.575 731.227,481.865C731.227,491.511 729.041,499.936 724.668,507.138C720.621,513.804 714.921,519.203 707.57,523.335C707.11,523.59 706.78,524.027 706.658,524.538C706.537,525.05 706.636,525.588 706.932,526.023C711.37,532.552 727.226,555.851 732.444,563.517C732.772,564 732.807,564.626 732.534,565.142C732.26,565.659 731.724,565.982 731.139,565.982C721.812,565.982 693.424,565.982 686.865,565.982C686.013,565.982 685.217,565.559 684.74,564.854C681.326,559.805 667.452,539.286 663.562,533.533ZM541.621,543.563C541.362,542.889 540.714,542.445 539.993,542.445C533.047,542.445 498.015,542.445 491.069,542.445C490.347,542.445 489.7,542.889 489.44,543.563C487.974,547.369 483.172,559.834 481.436,564.339C481.055,565.329 480.103,565.982 479.042,565.982C472.297,565.982 448,565.982 438.422,565.982C437.556,565.982 436.749,565.546 436.275,564.821C435.801,564.097 435.724,563.182 436.071,562.389C444.786,542.453 487.017,445.846 492.865,432.469C493.273,431.535 494.196,430.931 495.215,430.931C502.279,430.931 529.554,430.931 536.618,430.931C537.638,430.931 538.561,431.535 538.969,432.469C544.817,445.846 587.048,542.453 595.763,562.389C596.109,563.182 596.033,564.097 595.559,564.821C595.085,565.546 594.278,565.982 593.412,565.982C583.706,565.982 558.852,565.982 552.019,565.982C550.958,565.982 550.007,565.329 549.625,564.339C547.89,559.834 543.088,547.369 541.621,543.563ZM526.693,509.647C527.136,509.647 527.55,509.428 527.8,509.063C528.05,508.699 528.104,508.234 527.945,507.821C525.766,502.183 519.137,485.025 516.566,478.369C516.401,477.942 515.989,477.66 515.531,477.66C515.072,477.66 514.661,477.942 514.496,478.369C511.925,485.025 505.295,502.183 503.117,507.821C502.957,508.234 503.012,508.699 503.262,509.063C503.512,509.428 503.926,509.647 504.369,509.647C509.233,509.647 521.829,509.647 526.693,509.647ZM685.31,481.865C685.31,476.848 683.766,472.958 680.679,470.192C677.593,467.427 672.962,466.044 666.788,466.044L652.745,466.044C651.338,466.044 650.196,467.185 650.196,468.593C650.196,474.526 650.196,489.203 650.196,495.136C650.196,496.544 651.338,497.685 652.745,497.685C657.397,497.685 666.788,497.685 666.788,497.685C672.962,497.685 677.593,496.302 680.679,493.537C683.766,490.771 685.31,486.881 685.31,481.865Z" style="fill:white;"/>
</svg>
