<?xml version="1.0" encoding="UTF-8" standalone="no"?>
<!-- Created ONE1SIDE DESIGN https://vk.com/one1side, special for cristalix --> <!-- https://cristalix.ru/ -->
<!DOCTYPE svg PUBLIC "-//W3C//DTD SVG 1.1//EN" "http://www.w3.org/Graphics/SVG/1.1/DTD/svg11.dtd">
<svg width="100%" height="100%" viewBox="0 0 66 14" version="1.1" xmlns="http://www.w3.org/2000/svg" xmlns:xlink="http://www.w3.org/1999/xlink" xml:space="preserve" xmlns:serif="http://www.serif.com/" style="fill-rule:evenodd;clip-rule:evenodd;stroke-linejoin:round;stroke-miterlimit:2;">
    <path d="M20.923,10.003C20.3,10.003 19.737,9.867 19.233,9.596C18.729,9.326 18.333,8.95 18.045,8.469C17.756,7.989 17.612,7.446 17.612,6.84C17.612,6.234 17.756,5.691 18.045,5.211C18.333,4.73 18.729,4.354 19.233,4.084C19.737,3.813 20.303,3.677 20.932,3.677C21.462,3.677 21.941,3.771 22.369,3.957C22.797,4.143 23.157,4.411 23.448,4.761L22.54,5.599C22.126,5.122 21.613,4.883 21.002,4.883C20.623,4.883 20.286,4.966 19.988,5.132C19.691,5.298 19.46,5.529 19.294,5.827C19.128,6.124 19.045,6.461 19.045,6.84C19.045,7.219 19.128,7.556 19.294,7.853C19.46,8.151 19.691,8.382 19.988,8.548C20.286,8.714 20.623,8.797 21.002,8.797C21.613,8.797 22.126,8.555 22.54,8.072L23.448,8.911C23.157,9.266 22.796,9.537 22.365,9.723C21.934,9.909 21.453,10.003 20.923,10.003Z" style="fill:white;fill-rule:nonzero;"/>
    <path d="M28.297,9.898L27.118,8.194L25.816,8.194L25.816,9.898L24.4,9.898L24.4,3.782L27.048,3.782C27.589,3.782 28.06,3.872 28.459,4.053C28.858,4.234 29.165,4.49 29.38,4.822C29.596,5.154 29.704,5.547 29.704,6.001C29.704,6.456 29.594,6.847 29.376,7.176C29.158,7.505 28.847,7.757 28.446,7.932L29.817,9.898L28.297,9.898ZM28.271,6.001C28.271,5.658 28.16,5.394 27.939,5.211C27.718,5.027 27.394,4.935 26.969,4.935L25.816,4.935L25.816,7.067L26.969,7.067C27.394,7.067 27.718,6.974 27.939,6.788C28.16,6.601 28.271,6.339 28.271,6.001Z" style="fill:white;fill-rule:nonzero;"/>
    <rect x="30.822" y="3.782" width="1.415" height="6.116" style="fill:white;"/>
    <path d="M35.697,10.003C35.214,10.003 34.746,9.937 34.295,9.806C33.843,9.675 33.481,9.505 33.207,9.295L33.688,8.229C33.95,8.421 34.261,8.576 34.622,8.692C34.984,8.809 35.345,8.867 35.706,8.867C36.108,8.867 36.405,8.807 36.597,8.688C36.789,8.568 36.885,8.41 36.885,8.212C36.885,8.066 36.828,7.945 36.715,7.849C36.601,7.753 36.456,7.676 36.278,7.618C36.1,7.559 35.86,7.495 35.557,7.425C35.091,7.315 34.71,7.204 34.413,7.093C34.116,6.983 33.861,6.805 33.648,6.56C33.436,6.316 33.329,5.99 33.329,5.582C33.329,5.227 33.426,4.905 33.618,4.617C33.81,4.328 34.1,4.1 34.487,3.931C34.874,3.762 35.348,3.677 35.907,3.677C36.297,3.677 36.678,3.724 37.051,3.817C37.424,3.91 37.75,4.044 38.03,4.219L37.593,5.294C37.028,4.973 36.463,4.813 35.898,4.813C35.502,4.813 35.209,4.877 35.02,5.005C34.831,5.133 34.736,5.302 34.736,5.512C34.736,5.722 34.845,5.878 35.064,5.979C35.282,6.081 35.616,6.182 36.064,6.281C36.53,6.392 36.911,6.502 37.208,6.613C37.506,6.724 37.76,6.898 37.973,7.137C38.186,7.376 38.292,7.699 38.292,8.107C38.292,8.456 38.194,8.775 37.999,9.063C37.804,9.352 37.511,9.58 37.121,9.749C36.731,9.918 36.256,10.003 35.697,10.003Z" style="fill:white;fill-rule:nonzero;"/>
    <path d="M40.441,4.935L38.484,4.935L38.484,3.782L43.813,3.782L43.813,4.935L41.856,4.935L41.856,9.898L40.441,9.898L40.441,4.935Z" style="fill:white;fill-rule:nonzero;"/>
    <path d="M48.295,8.587L45.456,8.587L44.914,9.898L43.464,9.898L46.19,3.782L47.588,3.782L50.322,9.898L48.837,9.898L48.295,8.587ZM47.85,7.513L46.88,5.171L45.91,7.513L47.85,7.513Z" style="fill:white;fill-rule:nonzero;"/>
    <path d="M50.96,3.782L52.375,3.782L52.375,8.745L55.442,8.745L55.442,9.898L50.96,9.898L50.96,3.782Z" style="fill:white;fill-rule:nonzero;"/>
    <rect x="56.237" y="3.782" width="1.415" height="6.116" style="fill:white;"/>
    <path d="M62.956,9.898L61.479,7.775L60.029,9.898L58.404,9.898L60.667,6.788L58.517,3.782L60.125,3.782L61.531,5.765L62.912,3.782L64.441,3.782L62.309,6.735L64.589,9.898L62.956,9.898Z" style="fill:white;fill-rule:nonzero;"/>
    <path d="M9.78,6.84L5.115,2.175L0.451,6.84L5.115,11.505L9.78,6.84Z" style="fill:white;"/>
    <path d="M12.546,3.985L10.333,1.772L8.121,3.985L10.333,6.197L12.546,3.985Z" style="fill:white;"/>
    <path d="M15.401,6.84L13.189,4.628L10.977,6.84L13.189,9.052L15.401,6.84Z" style="fill:white;"/>
    <path d="M12.546,9.695L10.333,7.483L8.121,9.695L10.333,11.908L12.546,9.695Z" style="fill:white;"/>
</svg>
