<?xml version="1.0" encoding="UTF-8" standalone="no"?>
<!-- https://cristalix.ru/ -->
<!DOCTYPE svg PUBLIC "-//W3C//DTD SVG 1.1//EN" "http://www.w3.org/Graphics/SVG/1.1/DTD/svg11.dtd">
<svg width="100%" height="100%" viewBox="0 0 1000 1000" version="1.1" xmlns="http://www.w3.org/2000/svg" xmlns:xlink="http://www.w3.org/1999/xlink" xml:space="preserve" xmlns:serif="http://www.serif.com/" style="fill-rule:evenodd;clip-rule:evenodd;stroke-linejoin:round;stroke-miterlimit:2;">
    <g transform="matrix(0.988749,0,0,1,11.2505,0)">
        <rect x="-11.379" y="0" width="1011.38" height="1000" style="fill-opacity:0;"/>
    </g>
    <g transform="matrix(1031.42,0,0,1031.42,241.761,856.409)">
        <path d="M0.249,0.013C0.286,0.013 0.314,-0.012 0.314,-0.048C0.314,-0.085 0.286,-0.109 0.249,-0.109C0.212,-0.109 0.182,-0.085 0.182,-0.048C0.182,-0.012 0.212,0.013 0.249,0.013Z" style="fill:white;fill-rule:nonzero;"/>
    </g>
    <g transform="matrix(1031.42,0,0,1031.42,241.761,856.409)">
        <path d="M0.306,-0.162C0.302,-0.33 0.447,-0.351 0.463,-0.484C0.466,-0.504 0.465,-0.526 0.461,-0.55C0.445,-0.644 0.351,-0.707 0.241,-0.704C0.125,-0.704 0.041,-0.64 0.036,-0.507L0.133,-0.507C0.141,-0.567 0.192,-0.602 0.242,-0.602C0.307,-0.602 0.361,-0.559 0.35,-0.476C0.322,-0.366 0.184,-0.352 0.192,-0.162L0.306,-0.162Z" style="fill:white;fill-rule:nonzero;"/>
    </g>
</svg>
