<?xml version="1.0" encoding="UTF-8" standalone="no"?>
<!-- https://cristalix.ru/ -->
<!DOCTYPE svg PUBLIC "-//W3C//DTD SVG 1.1//EN" "http://www.w3.org/Graphics/SVG/1.1/DTD/svg11.dtd">
<svg width="100%" height="100%" viewBox="0 0 1000 1000" version="1.1" xmlns="http://www.w3.org/2000/svg" xmlns:xlink="http://www.w3.org/1999/xlink" xml:space="preserve" xmlns:serif="http://www.serif.com/" style="fill-rule:evenodd;clip-rule:evenodd;stroke-linejoin:round;stroke-miterlimit:2;">
    <path d="M811.374,432.109C809.43,434.201 808.728,437.161 809.525,439.903C810.323,442.646 812.502,444.768 815.265,445.491C852.21,455.191 881.063,471.991 901.828,495.882C925.041,522.589 936.647,554.912 936.647,592.852C936.647,623.802 928.286,652.506 911.562,678.964C894.839,705.422 869.38,726.763 835.184,742.987C800.989,759.211 758.681,767.323 708.262,767.323C671.321,767.323 634.754,762.83 598.562,753.844C572.684,747.42 549.294,739.08 528.393,728.827C514.898,722.242 509.268,705.985 515.801,692.465C524.768,673.893 537.326,647.905 546.501,628.917C549.478,622.758 554.828,618.072 561.325,615.933C567.823,613.794 574.911,614.385 580.964,617.572C595.457,625.179 611.058,631.416 627.766,636.282C653.475,643.77 678.809,647.514 703.769,647.514C729.229,647.514 749.446,642.772 764.422,633.287C779.398,623.802 786.886,610.324 786.886,592.852C786.886,558.906 760.179,541.933 706.764,541.933L693.392,541.933C666.453,541.933 644.614,520.094 644.614,493.154L644.614,457.645C644.614,451.658 646.873,445.892 650.94,441.5C671.971,418.787 738.214,347.244 738.214,347.244L558.19,347.244C551.123,347.244 544.346,344.437 539.349,339.44C534.352,334.443 531.544,327.665 531.544,320.598C531.544,302.171 531.544,277.75 531.544,259.323C531.544,252.256 534.352,245.478 539.349,240.481C544.346,235.484 551.123,232.677 558.19,232.677C634.341,232.677 850.625,232.677 900.219,232.677C905.863,232.677 910.439,237.253 910.439,242.897C910.439,254.522 910.439,274.122 910.439,291.316C910.439,313.306 902.118,334.481 887.147,350.588C863.539,375.987 828.171,414.038 811.374,432.109ZM378.773,701.958C373.728,689.485 361.62,681.321 348.165,681.321C316.749,681.321 259.74,681.321 228.323,681.321C214.869,681.321 202.76,689.485 197.715,701.958C193.41,712.605 188.173,725.555 183.867,736.202C178.823,748.675 166.714,756.84 153.259,756.84L63.353,756.84C63.353,756.84 191.363,466.848 226.248,387.822C231.529,375.858 243.374,368.139 256.452,368.139C275.385,368.139 302.806,368.139 321.73,368.139C334.794,368.139 346.629,375.841 351.918,387.786C386.893,466.76 515.357,756.84 515.357,756.84L423.229,756.84C409.774,756.84 397.666,748.675 392.621,736.202C388.316,725.555 383.078,712.605 378.773,701.958ZM289.373,600.249C300.338,600.249 310.587,594.805 316.727,585.721C322.867,576.637 324.097,565.098 320.009,554.924C305.725,519.372 288.244,475.864 288.244,475.864C288.244,475.864 270.764,519.372 256.479,554.924C252.391,565.098 253.621,576.637 259.761,585.721C265.901,594.805 276.15,600.249 287.115,600.249C287.868,600.249 288.621,600.249 289.373,600.249Z" style="fill:white;fill-rule:nonzero;"/>
</svg>
