<?xml version="1.0" encoding="UTF-8" standalone="no"?>
<!-- https://cristalix.ru/ -->
<!DOCTYPE svg PUBLIC "-//W3C//DTD SVG 1.1//EN" "http://www.w3.org/Graphics/SVG/1.1/DTD/svg11.dtd">
<svg width="100%" height="100%" viewBox="0 0 1000 1000" version="1.1" xmlns="http://www.w3.org/2000/svg" xmlns:xlink="http://www.w3.org/1999/xlink" xml:space="preserve" xmlns:serif="http://www.serif.com/" style="fill-rule:evenodd;clip-rule:evenodd;stroke-linejoin:round;stroke-miterlimit:2;">
    <path d="M891.049,264.771C891.049,179.196 821.572,109.719 735.997,109.719L265.539,109.719C179.964,109.719 110.488,179.196 110.488,264.771L110.488,735.229C110.488,820.804 179.964,890.281 265.539,890.281L735.997,890.281C821.572,890.281 891.049,820.804 891.049,735.229L891.049,264.771ZM694.428,685.511C694.428,688.127 693.292,690.614 691.314,692.327C689.337,694.039 686.713,694.808 684.124,694.434C649.125,689.375 534.87,672.861 496.518,667.318C489.237,666.266 483.834,660.026 483.834,652.669C483.834,622.307 483.834,546.493 483.834,519.145C483.834,516.492 484.895,513.949 486.779,512.083C488.664,510.216 491.217,509.181 493.87,509.206C529.448,509.552 649.314,510.716 684.586,511.059C690.037,511.112 694.428,515.546 694.428,520.997C694.428,552.839 694.428,652.872 694.428,685.511ZM464.187,651.587C464.187,654.198 463.055,656.681 461.084,658.393C459.113,660.105 456.497,660.879 453.912,660.514C426.01,656.574 348.885,645.682 318.303,641.364C311.001,640.333 305.572,634.083 305.572,626.709L305.572,517.911C305.572,515.264 306.628,512.726 308.506,510.86C310.383,508.995 312.928,507.955 315.575,507.972C344.149,508.157 425.9,508.687 454.313,508.872C459.777,508.907 464.187,513.346 464.187,518.81C464.187,546.295 464.187,623.505 464.187,651.587ZM464.187,348.374C464.187,345.763 463.055,343.28 461.084,341.568C459.113,339.856 456.497,339.082 453.912,339.447C426.01,343.387 348.885,354.278 318.303,358.597C311.001,359.628 305.572,365.877 305.572,373.252L305.572,482.05C305.572,484.697 306.628,487.235 308.506,489.1C310.383,490.966 312.928,492.006 315.575,491.988C344.149,491.803 425.9,491.273 454.313,491.089C459.777,491.054 464.187,486.614 464.187,481.15C464.187,453.665 464.187,376.455 464.187,348.374ZM694.428,314.489C694.428,311.873 693.292,309.386 691.314,307.673C689.337,305.961 686.713,305.192 684.124,305.566C649.125,310.625 534.87,327.139 496.518,332.682C489.237,333.734 483.834,339.974 483.834,347.331C483.834,377.693 483.834,453.507 483.834,480.855C483.834,483.508 484.895,486.051 486.779,487.917C488.664,489.784 491.217,490.819 493.87,490.794C529.448,490.448 649.314,489.284 684.586,488.941C690.037,488.888 694.428,484.454 694.428,479.003C694.428,447.161 694.428,347.128 694.428,314.489Z" style="fill:white;"/>
</svg>
