<?xml version="1.0" encoding="UTF-8" standalone="no"?>
<!-- https://cristalix.ru/ -->
<!DOCTYPE svg PUBLIC "-//W3C//DTD SVG 1.1//EN" "http://www.w3.org/Graphics/SVG/1.1/DTD/svg11.dtd">
<svg width="100%" height="100%" viewBox="0 0 1000 1000" version="1.1" xmlns="http://www.w3.org/2000/svg" xmlns:xlink="http://www.w3.org/1999/xlink" xml:space="preserve" xmlns:serif="http://www.serif.com/" style="fill-rule:evenodd;clip-rule:evenodd;stroke-linejoin:round;stroke-miterlimit:2;">
    <g transform="matrix(15.7354,0,0,15.7354,-2523.08,-8339.55)">
        <path d="M205.337,578.134C201.734,581.035 197.156,582.771 192.176,582.771C180.58,582.771 171.166,573.357 171.166,561.761C171.166,550.165 180.58,540.751 192.176,540.751C195.982,540.751 199.552,541.765 202.632,543.537L200.596,545.401L197.758,542.3L192.893,546.75L189.875,543.451L180.808,551.748L186.713,558.202L184.367,560.349L190.176,566.699L187.942,568.743L196.203,577.772L201.062,573.326L205.337,578.134ZM210.701,572.926L207.525,569.334L203.933,572.51L207.109,576.102L210.701,572.926ZM201.146,569.617L196.822,564.727L191.932,569.051L196.256,573.941L201.146,569.617ZM207.383,565.353L204.207,561.761L200.615,564.937L203.791,568.529L207.383,565.353ZM197.575,560.988L193.251,556.098L188.361,560.422L192.685,565.312L197.575,560.988ZM213.073,562.941L210.932,560.52L208.512,562.661L210.652,565.082L213.073,562.941ZM204.192,557.408L201.016,553.817L197.424,556.993L200.6,560.585L204.192,557.408ZM209.897,555.493L207.756,553.072L205.335,555.213L207.476,557.634L209.897,555.493ZM193.985,552.428L189.661,547.538L184.771,551.862L189.095,556.752L193.985,552.428ZM200.75,549.896L197.574,546.304L193.982,549.48L197.158,553.072L200.75,549.896ZM206.727,548.015L204.586,545.594L202.165,547.735L204.306,550.156L206.727,548.015Z" style="fill:white;"/>
    </g>
</svg>
