<?xml version="1.0" encoding="UTF-8" standalone="no"?>
<!DOCTYPE svg PUBLIC "-//W3C//DTD SVG 1.1//EN" "http://www.w3.org/Graphics/SVG/1.1/DTD/svg11.dtd">
<svg width="100%" height="100%" viewBox="0 0 2434 2434" version="1.1" xmlns="http://www.w3.org/2000/svg" xmlns:xlink="http://www.w3.org/1999/xlink" xml:space="preserve" xmlns:serif="http://www.serif.com/" style="fill-rule:evenodd;clip-rule:evenodd;stroke-linejoin:round;stroke-miterlimit:2;">
    <g>
        <path d="M1215.28,359.567C1687.56,359.567 2070.99,743 2070.99,1215.28C2070.99,1687.56 1687.56,2070.99 1215.28,2070.99C743.001,2070.99 359.568,1687.56 359.568,1215.28C359.568,743 743.001,359.567 1215.28,359.567ZM1586.02,1386.69C1586.02,1454.86 1561.58,1513.79 1512.71,1563.49C1466.62,1610.35 1400.99,1641.33 1315.82,1656.41C1306.8,1658 1300.22,1665.84 1300.22,1675C1300.18,1697.63 1300.18,1739.31 1300.18,1767.27C1300.18,1782.99 1287.44,1795.73 1271.72,1795.73L1180.79,1795.73C1173.24,1795.73 1166,1792.73 1160.67,1787.39C1155.33,1782.06 1152.33,1774.82 1152.33,1767.27L1152.33,1681.4C1152.33,1671.57 1144.8,1663.38 1135,1662.56C1079.76,1657.76 1027.22,1647.73 977.379,1632.48C927.706,1617.28 885.729,1598.91 851.447,1577.35C845.204,1573.33 842.824,1565.36 845.844,1558.58C859.735,1527.33 897.786,1441.86 913.633,1406.27C915.4,1402.3 918.794,1399.29 922.943,1398.01C927.093,1396.72 931.594,1397.3 935.292,1399.57C970.455,1420.84 1010.36,1438.31 1055,1451.99C1105.92,1467.59 1156.03,1475.39 1205.31,1475.39C1298.95,1475.39 1345.76,1451.99 1345.76,1405.17C1345.76,1380.53 1332.42,1362.25 1305.72,1350.34C1279.03,1338.43 1236.11,1325.91 1176.97,1312.76C1112.08,1298.8 1057.87,1283.81 1014.34,1267.79C970.808,1251.78 933.436,1226.11 902.224,1190.79C871.012,1155.47 855.406,1107.83 855.406,1047.87C855.406,977.234 880.868,916.658 931.793,866.144C979.819,818.505 1047.93,788.216 1136.14,775.277C1145.41,773.926 1152.29,765.975 1152.29,756.603C1152.33,734.107 1152.33,693.505 1152.33,666.055C1152.33,658.508 1155.33,651.269 1160.67,645.933C1166,640.596 1173.24,637.597 1180.79,637.597L1271.72,637.597C1287.44,637.597 1300.18,650.338 1300.18,666.055L1300.18,753.534C1300.18,763.202 1307.47,771.313 1317.08,772.34C1357.85,776.813 1397.18,784.47 1435.09,795.301C1473.27,806.21 1507.75,820.019 1538.53,836.725C1545.24,840.43 1548.1,848.587 1545.16,855.667C1531.84,887.809 1496.02,974.111 1481.44,1009.26C1479.83,1013.14 1476.66,1016.17 1472.72,1017.62C1468.77,1019.07 1464.39,1018.8 1460.65,1016.88C1383.63,977.576 1308.78,957.932 1236.11,957.932C1187.65,957.932 1152.33,965.119 1130.15,979.493C1107.98,993.867 1096.89,1012.55 1096.89,1035.55C1096.89,1058.55 1110.03,1075.8 1136.32,1087.3C1162.6,1098.8 1204.9,1110.71 1263.22,1123.03C1328.93,1136.99 1383.34,1151.98 1426.46,1168C1469.59,1184.01 1506.96,1209.48 1538.58,1244.38C1570.2,1279.29 1586.02,1326.73 1586.02,1386.69Z"/>
    </g>
</svg>
