<?xml version="1.0" encoding="UTF-8" standalone="no"?>
<!DOCTYPE svg PUBLIC "-//W3C//DTD SVG 1.1//EN" "http://www.w3.org/Graphics/SVG/1.1/DTD/svg11.dtd">
<svg width="100%" height="100%" viewBox="0 0 584 584" version="1.1" xmlns="http://www.w3.org/2000/svg" xmlns:xlink="http://www.w3.org/1999/xlink" xml:space="preserve" xmlns:serif="http://www.serif.com/" style="fill-rule:evenodd;clip-rule:evenodd;stroke-linejoin:round;stroke-miterlimit:2;">
    <g>
        <path d="M143.014,444.553C143.013,431.443 134.701,419.775 122.31,415.491C112.401,412.053 103.311,406.379 95.753,398.821C82.469,385.537 75.006,367.521 75.006,348.734L75.006,134.305C75.006,115.519 82.469,97.502 95.753,84.219C109.037,70.935 127.053,63.472 145.84,63.472L437.494,63.472C456.28,63.472 474.297,70.935 487.58,84.219C500.864,97.502 508.327,115.519 508.327,134.305L508.327,348.734C508.327,367.521 500.864,385.537 487.58,398.821C474.297,412.105 456.28,419.568 437.494,419.568L340.695,419.568C304.385,419.568 269.404,433.226 242.7,457.829C214.406,483.898 182.056,513.704 182.056,513.704C175.26,519.965 165.405,521.613 156.942,517.903C148.48,514.193 143.014,505.828 143.014,496.588L143.014,444.553ZM148.485,316.037C148.485,322.539 151.068,328.775 155.666,333.373C160.264,337.97 166.5,340.553 173.002,340.553L298.614,340.553C305.116,340.553 311.352,337.97 315.95,333.373C320.548,328.775 323.131,322.539 323.131,316.037L323.131,316.029C323.131,309.527 320.548,303.291 315.95,298.693C311.352,294.096 305.116,291.513 298.614,291.513L173.002,291.513C166.5,291.513 160.264,294.096 155.666,298.693C151.068,303.291 148.485,309.527 148.485,316.029L148.485,316.037ZM148.485,236.033C148.485,242.535 151.068,248.771 155.666,253.368C160.264,257.966 166.5,260.549 173.002,260.549L410.331,260.549C416.834,260.549 423.07,257.966 427.667,253.368C432.265,248.771 434.848,242.535 434.848,236.033L434.848,236.025C434.848,229.523 432.265,223.287 427.667,218.689C423.07,214.091 416.834,211.508 410.331,211.508L173.002,211.508C166.5,211.508 160.264,214.091 155.666,218.689C151.068,223.287 148.485,229.523 148.485,236.025L148.485,236.033ZM148.485,156.028C148.485,162.531 151.068,168.767 155.666,173.364C160.264,177.962 166.5,180.545 173.002,180.545L410.331,180.545C416.834,180.545 423.07,177.962 427.667,173.364C432.265,168.767 434.848,162.531 434.848,156.028L434.848,156.021C434.848,149.519 432.265,143.283 427.667,138.685C423.07,134.087 416.834,131.504 410.331,131.504L173.002,131.504C166.5,131.504 160.264,134.087 155.666,138.685C151.068,143.283 148.485,149.519 148.485,156.021L148.485,156.028Z" style="fill:rgb(54,122,220);"/>
    </g>
</svg>
