<?xml version="1.0" encoding="UTF-8" standalone="no"?>
<!DOCTYPE svg PUBLIC "-//W3C//DTD SVG 1.1//EN" "http://www.w3.org/Graphics/SVG/1.1/DTD/svg11.dtd">
<svg width="100%" height="100%" viewBox="0 0 584 584" version="1.1" xmlns="http://www.w3.org/2000/svg" xmlns:xlink="http://www.w3.org/1999/xlink" xml:space="preserve" xmlns:serif="http://www.serif.com/" style="fill-rule:evenodd;clip-rule:evenodd;stroke-linejoin:round;stroke-miterlimit:2;">
    <g>
        <path d="M291.667,86.296C405.014,86.296 497.037,178.32 497.037,291.667C497.037,405.014 405.014,497.037 291.667,497.037C178.32,497.037 86.296,405.014 86.296,291.667C86.296,178.32 178.32,86.296 291.667,86.296ZM291.671,419.101C305.819,419.101 317.288,407.632 317.288,393.484L317.288,266.973C317.288,252.825 305.819,241.356 291.671,241.356L291.662,241.356C277.514,241.356 266.045,252.825 266.045,266.973L266.045,393.484C266.045,407.632 277.514,419.101 291.662,419.101L291.671,419.101ZM291.667,164.232C305.807,164.232 317.288,175.713 317.288,189.854C317.288,203.994 305.807,215.475 291.667,215.475C277.526,215.475 266.045,203.994 266.045,189.854C266.045,175.713 277.526,164.232 291.667,164.232Z" style="fill:rgb(54,122,220);"/>
    </g>
</svg>
