<?xml version="1.0" encoding="UTF-8" standalone="no"?>
<!DOCTYPE svg PUBLIC "-//W3C//DTD SVG 1.1//EN" "http://www.w3.org/Graphics/SVG/1.1/DTD/svg11.dtd">
<svg width="100%" height="100%" viewBox="0 0 584 584" version="1.1" xmlns="http://www.w3.org/2000/svg" xmlns:xlink="http://www.w3.org/1999/xlink" xml:space="preserve" xmlns:serif="http://www.serif.com/" style="fill-rule:evenodd;clip-rule:evenodd;stroke-linejoin:round;stroke-miterlimit:2;">
    <g>
        <path d="M93.363,223.141C91.32,223.141 89.361,222.329 87.916,220.885C86.472,219.44 85.66,217.481 85.66,215.438L85.66,156.494C85.66,117.374 117.374,85.66 156.494,85.66L426.84,85.66C465.96,85.66 497.673,117.374 497.673,156.494L497.673,426.84C497.673,465.96 465.96,497.673 426.84,497.673L156.494,497.673C117.374,497.673 85.66,465.96 85.66,426.84L85.66,367.896C85.66,365.853 86.472,363.893 87.916,362.449C89.361,361.004 91.32,360.193 93.363,360.193L221.894,360.193C224.19,360.193 226.392,361.105 228.016,362.728C229.639,364.352 230.551,366.553 230.551,368.849L230.551,391.652C230.551,397.294 233.813,402.427 238.92,404.824C244.028,407.221 250.06,406.45 254.4,402.844C288.986,374.111 351.699,322.011 377.097,300.911C379.845,298.627 381.435,295.24 381.435,291.667C381.435,288.094 379.845,284.706 377.097,282.423C351.699,261.322 288.986,209.222 254.4,180.489C250.06,176.884 244.028,176.112 238.92,178.509C233.813,180.906 230.551,186.04 230.551,191.682L230.551,214.484C230.551,216.78 229.639,218.982 228.016,220.605C226.392,222.229 224.19,223.141 221.894,223.141L93.363,223.141Z"/>
    </g>
</svg>
