<?xml version="1.0" encoding="UTF-8" standalone="no"?>
<!DOCTYPE svg PUBLIC "-//W3C//DTD SVG 1.1//EN" "http://www.w3.org/Graphics/SVG/1.1/DTD/svg11.dtd">
<svg width="100%" height="100%" viewBox="0 0 584 584" version="1.1" xmlns="http://www.w3.org/2000/svg" xmlns:xlink="http://www.w3.org/1999/xlink" xml:space="preserve" xmlns:serif="http://www.serif.com/" style="fill-rule:evenodd;clip-rule:evenodd;stroke-linejoin:round;stroke-miterlimit:2;">
    <g>
        <path d="M291.667,86.296C405.014,86.296 497.037,178.32 497.037,291.667C497.037,405.014 405.014,497.037 291.667,497.037C178.32,497.037 86.296,405.014 86.296,291.667C86.296,178.32 178.32,86.296 291.667,86.296ZM189.806,378.623C185.859,374.029 184.509,367.749 186.219,361.939C187.93,356.13 192.467,351.583 198.273,349.86C227.93,341.317 259.271,336.765 291.667,336.765C324.063,336.765 355.404,341.317 385.074,349.812C390.898,351.539 395.45,356.099 397.166,361.926C398.882,367.752 397.528,374.052 393.57,378.659C368.951,407.38 332.422,425.62 291.667,425.62C250.911,425.62 214.382,407.38 189.806,378.623ZM291.667,175.593C330.271,175.593 361.613,206.935 361.613,245.54C361.613,284.145 330.271,315.487 291.667,315.487C253.062,315.487 221.72,284.145 221.72,245.54C221.72,206.935 253.062,175.593 291.667,175.593Z"/>
    </g>
</svg>
