<?xml version="1.0" encoding="UTF-8" standalone="no"?>
<!DOCTYPE svg PUBLIC "-//W3C//DTD SVG 1.1//EN" "http://www.w3.org/Graphics/SVG/1.1/DTD/svg11.dtd">
<svg width="100%" height="100%" viewBox="0 0 1000 1000" version="1.1" xmlns="http://www.w3.org/2000/svg" xmlns:xlink="http://www.w3.org/1999/xlink" xml:space="preserve" xmlns:serif="http://www.serif.com/" style="fill-rule:evenodd;clip-rule:evenodd;stroke-linejoin:round;stroke-miterlimit:2;">
    <g transform="matrix(0.968854,0,0,0.968854,12.9544,15.5731)">
        <path d="M635.255,771.621C594.538,791.958 548.595,803.407 500,803.407C332.545,803.407 196.593,667.455 196.593,500C196.593,332.545 332.545,196.593 500,196.593C548.595,196.593 594.538,208.042 635.255,228.379C504.283,249.442 404.095,363.113 404.095,500C404.095,636.887 504.283,750.558 635.255,771.621Z" style="fill:white;"/>
    </g>
</svg>
