<?xml version="1.0" encoding="UTF-8" standalone="no"?>
<!-- https://cristalix.ru/ by ONE1SIDE https://vk.com/one1side -->
<!DOCTYPE svg PUBLIC "-//W3C//DTD SVG 1.1//EN" "http://www.w3.org/Graphics/SVG/1.1/DTD/svg11.dtd">
<svg width="100%" height="100%" viewBox="0 0 1000 1000" version="1.1" xmlns="http://www.w3.org/2000/svg" xmlns:xlink="http://www.w3.org/1999/xlink" xml:space="preserve" xmlns:serif="http://www.serif.com/" style="fill-rule:evenodd;clip-rule:evenodd;stroke-linejoin:round;stroke-miterlimit:2;">
    <g transform="matrix(4.16667,0,0,4.16667,500,500)">
        <g id="neotech" transform="matrix(1,0,0,1,-120,-120)">
            <path d="M180.552,193.745C179.114,192.957 177.338,193.146 176.099,194.22C159.003,208.886 136.788,217.75 112.518,217.75C94.781,217.75 78.142,213.015 63.795,204.743C63.665,204.666 63.616,204.504 63.681,204.368C63.746,204.233 63.904,204.17 64.044,204.224C74.204,208.006 85.194,210.073 96.664,210.073C148.328,210.073 190.273,168.128 190.273,116.464C190.273,67.383 152.418,27.073 104.336,23.166C104.186,23.155 104.069,23.03 104.068,22.879C104.067,22.728 104.182,22.602 104.332,22.589C107.031,22.365 109.762,22.25 112.518,22.25C136.529,22.25 158.53,30.926 175.554,45.312C176.792,46.369 178.554,46.55 179.982,45.768C181.957,44.689 184.736,43.166 186.666,42.109C188.038,41.357 189.726,41.493 190.961,42.454C197.082,47.273 202.61,52.801 207.426,58.925C208.387,60.158 208.522,61.844 207.771,63.216C206.236,66.025 203.621,70.796 202.153,73.476C201.486,74.693 201.512,76.172 202.221,77.365C206.122,84.002 209.082,91.148 211.02,98.598C211.362,99.941 212.388,101.004 213.719,101.392C216.651,102.253 221.874,103.778 224.947,104.676C226.449,105.115 227.547,106.404 227.74,107.957C228.661,115.693 228.661,123.511 227.736,131.246C227.543,132.797 226.446,134.086 224.946,134.524C221.874,135.425 216.651,136.95 213.718,137.807C212.386,138.196 211.358,139.26 211.016,140.605C209.082,148.056 206.122,155.202 202.224,161.84C201.516,163.032 201.49,164.509 202.157,165.725C203.621,168.407 206.236,173.178 207.774,175.986C208.526,177.358 208.39,179.046 207.429,180.281C202.61,186.402 197.082,191.93 190.959,196.746C189.725,197.707 188.039,197.842 186.668,197.091C184.88,196.116 182.382,194.747 180.552,193.745ZM119.468,190.093C119.558,190.07 119.651,190.121 119.679,190.21C119.708,190.299 119.661,190.394 119.574,190.427C110.972,193.573 101.685,195.289 92,195.289C47.609,195.289 11.57,159.249 11.57,114.859C11.57,70.469 47.609,34.429 92,34.429C136.39,34.429 172.43,70.469 172.43,114.859C172.43,125.25 170.456,135.184 166.861,144.305C166.824,144.393 166.724,144.435 166.635,144.402C166.546,144.368 166.499,144.27 166.529,144.18C172.107,127.3 169.415,111.619 158.3,103.367C142.736,91.814 116.331,100.984 99.372,123.83C82.413,146.677 81.28,174.607 96.844,186.158C103.386,191.015 111.2,192.12 119.468,190.093ZM147.434,127.659C155.749,134.299 154.814,149.315 145.347,161.168C135.881,173.022 121.444,177.254 113.129,170.613C104.814,163.972 105.749,148.957 115.215,137.103C124.682,125.25 139.119,121.018 147.434,127.659Z" style="fill:white;"/>
        </g>
        <g id="neotech1" serif:id="neotech">
        </g>
    </g>
</svg>
