<?xml version="1.0" encoding="UTF-8" standalone="no"?>
<!-- https://cristalix.ru/ by ONE1SIDE https://vk.com/one1side -->
<!DOCTYPE svg PUBLIC "-//W3C//DTD SVG 1.1//EN" "http://www.w3.org/Graphics/SVG/1.1/DTD/svg11.dtd">
<svg width="100%" height="100%" viewBox="0 0 1000 1000" version="1.1" xmlns="http://www.w3.org/2000/svg" xmlns:xlink="http://www.w3.org/1999/xlink" xml:space="preserve" xmlns:serif="http://www.serif.com/" style="fill-rule:evenodd;clip-rule:evenodd;stroke-linejoin:round;stroke-miterlimit:2;">
    <g transform="matrix(1,0,0,1,-7000,-1100)">
        <path d="M7219.15,1847.1C7217.29,1844.96 7216.44,1842.14 7216.8,1839.33C7217.16,1836.52 7218.71,1834.01 7221.05,1832.41C7252.9,1810.74 7451.2,1675.88 7485.7,1652.42C7491.95,1648.17 7500.21,1648.33 7506.29,1652.83C7554.06,1688.32 7620.98,1691.64 7672.94,1656.31C7724.89,1620.98 7746.41,1557.52 7730.98,1500.04C7729.03,1492.74 7731.91,1485.01 7738.16,1480.76C7772.64,1457.29 7786.82,1447.66 7818.67,1426C7821.02,1424.4 7823.93,1423.89 7826.67,1424.59C7829.42,1425.28 7831.73,1427.12 7833.04,1429.63C7917.91,1595.14 7868.05,1802.05 7710.34,1909.3C7552.62,2016.55 7341.87,1986.87 7219.15,1847.1ZM7181.33,1774C7178.99,1775.6 7176.07,1776.11 7173.33,1775.41C7170.58,1774.72 7168.27,1772.88 7166.96,1770.37C7082.09,1604.86 7131.95,1397.95 7289.66,1290.7C7447.38,1183.45 7658.13,1213.13 7780.85,1352.9C7782.71,1355.04 7783.56,1357.86 7783.2,1360.67C7782.84,1363.48 7781.29,1366 7778.95,1367.59C7747.1,1389.26 7732.92,1398.88 7698.43,1422.34C7692.18,1426.59 7683.92,1426.43 7677.84,1421.93C7630.07,1386.44 7563.14,1383.12 7511.19,1418.45C7459.23,1453.79 7437.72,1517.25 7453.15,1574.72C7455.09,1582.02 7452.21,1589.75 7445.97,1594C7411.49,1617.47 7213.19,1752.34 7181.33,1774ZM7191.18,1611.46C7191.18,1615.97 7188.18,1619.92 7183.84,1621.13C7179.49,1622.33 7174.88,1620.49 7172.56,1616.62C7163.42,1601.07 7159.57,1576.78 7163.54,1550.54C7167.72,1522.98 7179.51,1500.02 7193.77,1488.33C7197.23,1485.49 7202.15,1485.29 7205.83,1487.83C7209.51,1490.38 7211.07,1495.05 7209.65,1499.29C7204.35,1515.39 7200.03,1532.48 7196.88,1550.31C7193.17,1571.27 7191.33,1591.81 7191.18,1611.46ZM7551.63,1477.92C7584.44,1455.6 7629.21,1464.12 7651.53,1496.94C7673.84,1529.76 7665.32,1574.53 7632.5,1596.84C7599.68,1619.16 7554.92,1610.64 7532.6,1577.82C7510.28,1545 7518.81,1500.24 7551.63,1477.92Z" style="fill:white;"/>
    </g>
</svg>
