<?xml version="1.0" encoding="UTF-8" standalone="no"?>
<!-- https://cristalix.ru/ by ONE1SIDE https://vk.com/one1side -->
<!DOCTYPE svg PUBLIC "-//W3C//DTD SVG 1.1//EN" "http://www.w3.org/Graphics/SVG/1.1/DTD/svg11.dtd">
<svg width="100%" height="100%" viewBox="0 0 1000 1000" version="1.1" xmlns="http://www.w3.org/2000/svg" xmlns:xlink="http://www.w3.org/1999/xlink" xml:space="preserve" xmlns:serif="http://www.serif.com/" style="fill-rule:evenodd;clip-rule:evenodd;stroke-linejoin:round;stroke-miterlimit:2;">
    <g transform="matrix(4.16667,0,0,4.16667,500,500)">
        <g id="rpgparfeon" transform="matrix(1,0,0,1,-120,-120)">
            <g transform="matrix(1.04687,0,0,0.971306,-5.62411,3.51823)">
                <path d="M197.877,19.416L197.877,159.018C197.912,166.816 185.592,183.924 167.154,200.827C147.504,218.842 127.601,230.486 120.005,228.839C112.41,230.486 92.507,218.842 72.857,200.827C54.427,183.931 42.109,166.831 42.134,159.028L42.123,159.017L42.123,19.416C42.123,17.655 43.68,16.227 45.602,16.227L194.398,16.227C196.32,16.227 197.877,17.655 197.877,19.416ZM129.104,33.644L129.104,25.426C129.104,24.863 128.86,24.323 128.426,23.925C127.991,23.527 127.403,23.304 126.789,23.304L113.211,23.304C112.597,23.304 112.009,23.527 111.574,23.925C111.14,24.323 110.896,24.863 110.896,25.426L110.896,33.644L104.589,33.644L104.589,25.426C104.589,24.863 104.345,24.323 103.911,23.925C103.476,23.527 102.888,23.304 102.274,23.304L88.696,23.304C88.082,23.304 87.494,23.527 87.059,23.925C86.625,24.323 86.381,24.863 86.381,25.426L86.381,33.644L86.435,33.826L86.437,33.826L88.8,41.579C89.08,42.496 89.991,43.131 91.03,43.131L91.225,43.131C92.261,43.131 93.171,43.762 93.452,44.676C94.236,47.22 95.752,52.138 96.154,53.441C96.22,53.656 96.249,53.878 96.24,54.1C95.982,60.203 92.299,147.604 91.719,161.359C91.676,162.373 90.767,163.175 89.66,163.175C88.924,163.175 88.254,163.561 87.936,164.169C86.969,166.017 84.901,169.97 83.857,171.965C83.472,172.701 82.66,173.17 81.769,173.17L79.909,173.17C79.113,173.17 78.373,173.545 77.949,174.162C76.529,176.231 73.198,181.087 70.95,184.362C70.502,185.016 70.476,185.842 70.883,186.518C71.291,187.194 72.067,187.614 72.91,187.614L167.09,187.614C167.933,187.614 168.709,187.194 169.117,186.518C169.524,185.842 169.498,185.016 169.05,184.362C166.802,181.087 163.471,176.231 162.051,174.162C161.627,173.545 160.887,173.17 160.091,173.17L158.231,173.17C157.34,173.17 156.528,172.701 156.143,171.965C155.099,169.97 153.031,166.017 152.064,164.169C151.746,163.561 151.076,163.175 150.34,163.175C149.233,163.175 148.324,162.373 148.281,161.359C147.701,147.604 144.018,60.203 143.76,54.1C143.751,53.878 143.78,53.656 143.846,53.441C144.248,52.138 145.764,47.22 146.548,44.676C146.829,43.762 147.739,43.131 148.775,43.131L148.97,43.131C150.009,43.131 150.92,42.496 151.2,41.579L153.563,33.826L153.565,33.826L153.619,33.644L153.619,25.426C153.619,24.863 153.375,24.323 152.941,23.925C152.506,23.527 151.918,23.304 151.304,23.304L137.726,23.304C137.112,23.304 136.524,23.527 136.089,23.925C135.655,24.323 135.411,24.863 135.411,25.426L135.411,33.644L129.104,33.644ZM105.257,99.083C105.251,97.54 107.583,94.154 111.074,90.808C114.794,87.243 118.562,84.938 120,85.264C121.438,84.938 125.206,87.243 128.926,90.808C132.415,94.152 134.747,97.537 134.743,99.081L134.745,99.083L134.745,145.272C134.745,145.985 134.115,146.562 133.338,146.562L106.664,146.562C105.887,146.562 105.257,145.985 105.257,145.272L105.257,99.083Z" style="fill:white;"/>
            </g>
        </g>
        <g id="rpgparfeon1" serif:id="rpgparfeon">
        </g>
    </g>
</svg>
