<?xml version="1.0" encoding="UTF-8" standalone="no"?>
<!-- https://cristalix.ru/ -->

<svg viewBox="0 0 1000 1000" xmlns="http://www.w3.org/2000/svg" xmlns:xlink="http://www.w3.org/1999/xlink">
 <rect fill="rgba(0,0,0,0)" height="1000" width="1000"/>
 <g transform="translate(500 0)">
  <g transform="translate(0 500)">
   <g transform="translate(0 0)">
    <g transform="translate(0 0)">
     <g transform="rotate(0)">
      <g transform="scale(1 1)">
       <g transform="scale(1 1)">
        <g transform="skewX(0) skewY(0)">
         <g transform="translate(-500 0)" opacity="1">
          <g transform="translate(0 -500)">
           <g>
            <g transform="translate(494.311 500)">
             <g transform="translate(5.68911 0)">
              <g transform="rotate(0)">
               <g transform="scale(0.988749 1)">
                <g transform="skewX(0) skewY(0)">
                 <g transform="translate(-494.311 -500)" opacity="1">
                  <g>
                   <g transform="translate(494.311 500)">
                    <g transform="translate(0 0)">
                     <g transform="rotate(0)">
                      <g transform="scale(1 1)">
                       <g transform="skewX(0) skewY(0)">
                        <g transform="translate(-494.311 -500)" opacity="1">
                         <rect fill="none" y="0" height="1000" stroke="none" stroke-width="0" x="-11.379" width="1011.38"/>
                        </g>
                       </g>
                      </g>
                     </g>
                    </g>
                   </g>
                  </g>
                 </g>
                </g>
               </g>
              </g>
             </g>
            </g>
            <g transform="translate(501.511 0)">
             <g transform="translate(0 499.998)">
              <g transform="translate(0 0)">
               <g transform="translate(0 0)">
                <g transform="rotate(0)">
                 <g transform="scale(1 1)">
                  <g transform="scale(1 1)">
                   <g transform="skewX(0) skewY(0)">
                    <g transform="translate(-501.511 0)" opacity="1">
                     <g transform="translate(0 -499.998)">
                      <g>
                       <g transform="translate(1362.13 0)">
                        <g transform="translate(0 286.802)">
                         <g transform="translate(-862.114 0)">
                          <g>
                           <animateTransform keySplines="0 0 1 1;0 0.333333 1 0.666667;0 0.333333 1 0.666667;0 0.333333 1 0.666667;0 0.333333 1 0.666667;0 0.333333 1 0.666667;0 0.333333 1 0.666667;0 0.333333 1 0.666667;0 0 1 1;0 0 1 1;0 0 1 1;0 0 1 1" calcMode="spline" type="translate" keyTimes="0;0.18;0.34;0.42;0.46;0.48;0.5;0.54;0.58;0.62;0.66;0.78;1" values="0 213.196;0 213.196;0 213.196;0 213.196;0 213.196;0 213.196;0 213.196;0 213.196;0 213.196;0 217.696;0 229.596;0 199.696;0 199.696" repeatCount="indefinite" attributeName="transform" dur="1.42857s"/>
                           <g>
                            <animateTransform keySplines="0 0 1 1;0 0 1 1;0 0 1 1;0 0 1 1;0 0 1 1;0 0.333333 1 0.666667;0 0.333333 1 0.666667;0 0.333333 1 0.666667;0 0.333333 1 0.666667;0 0.333333 1 0.666667;0 0 1 1" calcMode="spline" type="rotate" keyTimes="0;0.18;0.26;0.34;0.42;0.46;0.48;0.5;0.54;0.58;0.62;1" values="0;0;2.7;0;-0.699999;0;0;0;0;0;0;0" repeatCount="indefinite" attributeName="transform" dur="1.42857s"/>
                            <g transform="scale(5.22516 1)">
                             <g transform="scale(1 5.22516)">
                              <g transform="skewX(0) skewY(0)">
                               <g transform="translate(-1362.13 0)" opacity="1">
                                <g transform="translate(0 -286.802)">
                                 <g>
                                  <g transform="translate(1362.13 0)">
                                   <g transform="translate(0 286.802)">
                                    <g transform="translate(0 0)">
                                     <g transform="translate(0 0)">
                                      <g transform="rotate(0)">
                                       <g transform="scale(1 1)">
                                        <g transform="scale(1 1)">
                                         <g transform="skewX(0) skewY(0)">
                                          <g transform="translate(-1362.13 0)" opacity="1">
                                           <g transform="translate(0 -286.802)">
                                            <path fill="#ffffff" stroke="none" stroke-width="0" d="M1304.34 250.051C1304.34 249.682 1304.48 249.328 1304.75 249.067C1305.01 248.806 1305.36 248.659 1305.73 248.659C1312 248.659 1337.66 248.659 1344.43 248.659C1345.45 248.66 1346.41 249.109 1347.06 249.886C1350.67 254.165 1356.08 256.879 1362.12 256.879C1368.16 256.879 1373.57 254.165 1377.2 249.892C1377.85 249.118 1378.8 248.671 1379.81 248.671C1386.59 248.659 1412.24 248.659 1418.52 248.659C1418.89 248.659 1419.24 248.806 1419.5 249.067C1419.76 249.328 1419.91 249.682 1419.91 250.051C1419.91 261.671 1419.91 342.138 1419.91 342.138C1419.91 344.456 1418.99 346.678 1417.35 348.317C1415.71 349.956 1413.49 350.876 1411.17 350.876C1389.7 350.876 1334.55 350.876 1313.08 350.876C1310.76 350.876 1308.54 349.956 1306.9 348.317C1305.26 346.678 1304.34 344.456 1304.34 342.138C1304.34 342.138 1304.34 261.671 1304.34 250.051ZM1343.56 306.346C1343.56 304.857 1342.35 303.65 1340.86 303.65C1334.76 303.65 1319.95 303.65 1313.85 303.65C1312.36 303.65 1311.15 304.857 1311.15 306.346C1311.15 306.346 1311.15 306.347 1311.15 306.347C1311.15 307.836 1312.36 309.043 1313.85 309.043C1319.95 309.043 1334.76 309.043 1340.86 309.043C1342.35 309.043 1343.56 307.836 1343.56 306.347C1343.56 306.347 1343.56 306.346 1343.56 306.346ZM1357.8 295.687C1357.8 294.198 1356.59 292.991 1355.1 292.991C1346.87 292.991 1322.09 292.991 1313.85 292.991C1312.36 292.991 1311.15 294.198 1311.15 295.687C1311.15 295.687 1311.15 295.687 1311.15 295.687C1311.15 297.176 1312.36 298.383 1313.85 298.383C1322.09 298.383 1346.87 298.383 1355.1 298.383C1356.59 298.383 1357.8 297.176 1357.8 295.687C1357.8 295.687 1357.8 295.687 1357.8 295.687ZM1379.76 284.121C1379.76 282.632 1378.55 281.425 1377.06 281.425C1366.09 281.425 1324.83 281.425 1313.85 281.425C1312.36 281.425 1311.15 282.632 1311.15 284.121C1311.15 284.121 1311.15 284.121 1311.15 284.121C1311.15 285.61 1312.36 286.817 1313.85 286.817C1324.83 286.817 1366.09 286.817 1377.06 286.817C1378.55 286.817 1379.76 285.61 1379.76 284.121C1379.76 284.121 1379.76 284.121 1379.76 284.121ZM1365.57 273.338C1365.57 271.849 1364.37 270.642 1362.88 270.642C1353.61 270.642 1323.12 270.642 1313.85 270.642C1312.36 270.642 1311.15 271.849 1311.15 273.338C1311.15 273.338 1311.15 273.339 1311.15 273.339C1311.15 274.828 1312.36 276.035 1313.85 276.035C1323.12 276.035 1353.61 276.035 1362.88 276.035C1364.37 276.035 1365.57 274.828 1365.57 273.339C1365.57 273.339 1365.57 273.338 1365.57 273.338ZM1306.35 244.272C1305.88 244.272 1305.44 244.033 1305.18 243.637C1304.92 243.241 1304.88 242.742 1305.08 242.311C1306.46 239.267 1309.52 237.141 1313.08 237.141C1313.08 237.141 1343.37 237.141 1343.37 237.141C1345.66 237.141 1347.68 235.603 1348.29 233.385C1349.87 227.239 1355.47 222.728 1362.12 222.728C1368.77 222.728 1374.37 227.239 1376.04 233.365C1376.63 235.548 1378.62 237.063 1380.88 237.063C1390.18 237.141 1411.17 237.141 1411.17 237.141C1413.49 237.141 1415.71 238.062 1417.35 239.7C1418.12 240.468 1418.73 241.364 1419.16 242.339C1419.34 242.761 1419.3 243.247 1419.05 243.631C1418.79 244.015 1418.36 244.247 1417.9 244.247C1410.65 244.272 1384.22 244.272 1376.96 244.272C1375.85 244.272 1374.81 244.812 1374.17 245.72C1371.49 249.487 1367.09 251.937 1362.12 251.937C1357.15 251.937 1352.75 249.487 1350.06 245.73C1349.42 244.828 1348.39 244.291 1347.28 244.291C1340.03 244.272 1313.62 244.272 1306.35 244.272ZM1362.12 228.832C1366.71 228.832 1370.43 232.555 1370.43 237.141C1370.43 241.727 1366.74 245.417 1362.15 245.417C1357.57 245.417 1353.81 241.727 1353.81 237.141C1353.81 232.555 1357.54 228.832 1362.12 228.832Z"/>
                                           </g>
                                          </g>
                                         </g>
                                        </g>
                                       </g>
                                      </g>
                                     </g>
                                    </g>
                                   </g>
                                  </g>
                                 </g>
                                </g>
                               </g>
                              </g>
                             </g>
                            </g>
                           </g>
                          </g>
                         </g>
                        </g>
                       </g>
                       <g transform="translate(1419.78 0)">
                        <g transform="translate(0 298.831)">
                         <g>
                          <animateTransform keySplines="0 0 1 1;0 0 1 1;0 0 1 1;0 0 1 1;0 0 1 1;0 0 1 1;0 0 1 1" calcMode="spline" type="translate" keyTimes="0;0.18;0.34;0.7;0.74;0.76;0.8;1" values="-796.81 0;-796.81 0;-533.81 0;-509.01 0;-517.96 0;-611.51 0;-874.01 0;-874.01 0" repeatCount="indefinite" attributeName="transform" dur="1.42857s"/>
                          <g>
                           <animateTransform keySplines="0 0 1 1;0 0 1 1;0 0 1 1;0 0 1 1;0 0 1 1;0 0 1 1;0 0 1 1;0 0 1 1" calcMode="spline" type="translate" keyTimes="0;0.18;0.34;0.58;0.7;0.74;0.76;0.8;1" values="0 268.365;0 268.365;0 221.565;0 253.765;0 244.336;0 238.393;0 281.951;0 305.765;0 305.765" repeatCount="indefinite" attributeName="transform" dur="1.42857s"/>
                           <g>
                            <animateTransform keySplines="0 0 1 1;0 0 1 1;0 0.333333 1 0.666667;0 0 1 1;0 0 1 1;0 0.333333 1 0.666667;0 0 1 1;0 0 1 1;0 0 1 1;0 0 1 1;0 0 1 1" calcMode="spline" type="rotate" keyTimes="0;0.18;0.34;0.42;0.46;0.54;0.58;0.7;0.74;0.76;0.8;1" values="210.8;210.8;180;180;178.081;180;180;190.75;188.917;213.478;238.9;238.9" repeatCount="indefinite" attributeName="transform" dur="1.42857s"/>
                            <g transform="scale(5.22517 1)">
                             <g transform="scale(1 5.22517)">
                              <g transform="skewX(0) skewY(0)">
                               <g transform="translate(-1419.78 0)" opacity="1">
                                <g transform="translate(0 -298.831)">
                                 <g>
                                  <g transform="translate(1419.78 298.831)">
                                   <g transform="translate(0 0)">
                                    <g transform="rotate(0)">
                                     <g transform="scale(1 1)">
                                      <g transform="skewX(0) skewY(0)">
                                       <g transform="translate(-1419.78 -298.831)" opacity="1">
                                        <path fill="#ffffff" stroke="none" stroke-width="0" d="M1423.77 257.743C1424.23 257.743 1424.63 258.037 1424.78 258.472C1424.91 258.864 1425.08 259.376 1425.25 259.914C1425.91 261.922 1426.25 264.021 1426.25 266.133C1426.25 266.133 1426.25 346.683 1426.25 346.683C1426.25 350.255 1423.35 353.151 1419.78 353.151C1419.78 353.151 1419.78 353.151 1419.78 353.151C1416.2 353.151 1413.31 350.255 1413.31 346.683C1413.31 346.683 1413.31 266.086 1413.31 266.086C1413.31 264.004 1413.63 261.936 1414.27 259.955C1414.45 259.404 1414.62 258.878 1414.75 258.476C1414.89 258.039 1415.3 257.743 1415.76 257.743C1417.55 257.743 1421.98 257.743 1423.77 257.743ZM1422.41 251.266C1422.52 251.589 1422.46 251.943 1422.27 252.218C1422.07 252.493 1421.75 252.655 1421.41 252.655C1420.41 252.655 1419.09 252.655 1418.09 252.655C1417.75 252.656 1417.43 252.493 1417.23 252.22C1417.03 251.946 1416.97 251.593 1417.08 251.271C1417.62 249.609 1418.52 246.816 1419.12 244.958C1419.2 244.692 1419.45 244.512 1419.73 244.511C1420.01 244.511 1420.26 244.69 1420.34 244.955C1420.95 246.811 1421.87 249.603 1422.41 251.266Z"/>
                                       </g>
                                      </g>
                                     </g>
                                    </g>
                                   </g>
                                  </g>
                                 </g>
                                </g>
                               </g>
                              </g>
                             </g>
                            </g>
                           </g>
                          </g>
                         </g>
                        </g>
                       </g>
                      </g>
                     </g>
                    </g>
                   </g>
                  </g>
                 </g>
                </g>
               </g>
              </g>
             </g>
            </g>
           </g>
          </g>
         </g>
        </g>
       </g>
      </g>
     </g>
    </g>
   </g>
  </g>
 </g>
 <defs/>
</svg>
