<?xml version="1.0" encoding="UTF-8" standalone="no"?>
<!-- https://cristalix.ru/ -->
<!DOCTYPE svg PUBLIC "-//W3C//DTD SVG 1.1//EN" "http://www.w3.org/Graphics/SVG/1.1/DTD/svg11.dtd">
<svg width="100%" height="100%" viewBox="0 0 1000 1000" version="1.1" xmlns="http://www.w3.org/2000/svg" xmlns:xlink="http://www.w3.org/1999/xlink" xml:space="preserve" xmlns:serif="http://www.serif.com/" style="fill-rule:evenodd;clip-rule:evenodd;stroke-linejoin:round;stroke-miterlimit:2;">
    <g transform="matrix(23.9117,0,0,23.9117,-12605.4,-5212.39)">
        <path d="M566.334,249.339C566.334,249.05 566.219,248.774 566.016,248.57C565.812,248.366 565.535,248.252 565.247,248.252L530.899,248.252C530.611,248.252 530.334,248.366 530.131,248.57C529.927,248.774 529.812,249.05 529.812,249.339L529.812,251.652C529.812,251.94 529.927,252.217 530.131,252.42C530.334,252.624 530.611,252.739 530.899,252.739L565.247,252.739C565.535,252.739 565.812,252.624 566.016,252.42C566.219,252.217 566.334,251.94 566.334,251.652L566.334,249.339ZM547.436,225.051C547.724,225.051 548.001,225.166 548.204,225.37C548.408,225.573 548.523,225.85 548.523,226.138L548.523,243.63C548.523,243.918 548.408,244.195 548.204,244.399C548.001,244.602 547.724,244.717 547.436,244.717L544.047,244.717C543.759,244.717 543.482,244.602 543.278,244.399C543.075,244.195 542.96,243.918 542.96,243.63L542.96,237.047L535.375,237.047L535.375,243.63C535.375,243.918 535.26,244.195 535.057,244.399C534.853,244.602 534.576,244.717 534.288,244.717L530.899,244.717C530.611,244.717 530.334,244.602 530.131,244.399C529.927,244.195 529.812,243.918 529.812,243.63L529.812,226.138C529.812,225.85 529.927,225.573 530.131,225.37C530.334,225.166 530.611,225.051 530.899,225.051L534.288,225.051C534.888,225.051 535.375,225.538 535.375,226.138L535.375,232.44L542.96,232.44L542.96,226.138C542.96,225.538 543.447,225.051 544.047,225.051L547.436,225.051ZM566.334,241.317C566.334,241.029 566.219,240.752 566.016,240.549C565.812,240.345 565.535,240.23 565.247,240.23L552.629,240.23C552.341,240.23 552.065,240.345 551.861,240.549C551.657,240.752 551.543,241.029 551.543,241.317L551.543,243.63C551.543,243.918 551.657,244.195 551.861,244.399C552.065,244.602 552.341,244.717 552.629,244.717L565.247,244.717C565.535,244.717 565.812,244.602 566.016,244.399C566.219,244.195 566.334,243.918 566.334,243.63L566.334,241.317ZM566.334,233.728C566.334,233.439 566.219,233.163 566.016,232.959C565.812,232.755 565.535,232.641 565.247,232.641L552.629,232.641C552.341,232.641 552.065,232.755 551.861,232.959C551.657,233.163 551.543,233.439 551.543,233.728L551.543,236.041C551.543,236.329 551.657,236.605 551.861,236.809C552.065,237.013 552.341,237.127 552.629,237.127L565.247,237.127C565.535,237.127 565.812,237.013 566.016,236.809C566.219,236.605 566.334,236.329 566.334,236.041L566.334,233.728ZM566.334,226.138C566.334,225.85 566.219,225.573 566.016,225.37C565.812,225.166 565.535,225.051 565.247,225.051L552.629,225.051C552.341,225.051 552.065,225.166 551.861,225.37C551.657,225.573 551.543,225.85 551.543,226.138L551.543,228.451C551.543,228.739 551.657,229.016 551.861,229.22C552.065,229.423 552.341,229.538 552.629,229.538L565.247,229.538C565.535,229.538 565.812,229.423 566.016,229.22C566.219,229.016 566.334,228.739 566.334,228.451L566.334,226.138Z" style="fill:#000;"fill-rule:nonzero;"/>
    </g>
</svg>
