<?xml version="1.0" encoding="UTF-8" standalone="no"?>
<!-- https://cristalix.ru/ -->

<svg xmlns="http://www.w3.org/2000/svg" xmlns:xlink="http://www.w3.org/1999/xlink" viewBox="0 0 1000 1000">
 <rect height="1000" width="1000" fill="rgba(0,0,0,0)"/>
 <g transform="translate(500 500)">
  <g>
   <animateTransform repeatCount="indefinite" calcMode="spline" keyTimes="0;0.0583333;0.183333;0.341667;0.416667;0.5;0.541667;0.6;1" keySplines="0 0 1 1;0 0.333333 1 0.666667;0 0.333333 1 0.666667;0 0 1 1;0 0 1 1;0 0 1 1;0 0 1 1;0 0 1 1" type="translate" values="0 0;0 0;0 0;0 0;174 0;-121.8 0;169.3 0;0 0;0 0" attributeName="transform" dur="3.42857s"/>
   <g>
    <animateTransform repeatCount="indefinite" calcMode="spline" keyTimes="0;0.0583333;0.183333;0.341667;0.416667;0.466667;0.5;0.6;1" keySplines="0 0 1 1;0 0.333333 1 0.666667;0 0.333333 1 0.666667;0 0 1 1;0 0 1 1;0 0 1 1;0 0 1 1;0 0 1 1" type="translate" values="0 0;0 0;0 0;0 0;0 206.9;0 224.3;0 29.3;0 0;0 0" attributeName="transform" dur="3.42857s"/>
    <g transform="rotate(0)">
     <g transform="scale(1 1)">
      <g transform="skewX(0) skewY(0)">
       <g transform="translate(-500 -500)" opacity="1">
        <g>
         <g transform="translate(500 500)">
          <g transform="translate(0 0)">
           <g transform="rotate(0)">
            <g transform="scale(1 1)">
             <g transform="skewX(0) skewY(0)">
              <g transform="translate(-500 -500)" opacity="1">
               <rect stroke="none" height="1000" width="1000" stroke-width="0" x="0" y="0" fill="none"/>
              </g>
             </g>
            </g>
           </g>
          </g>
         </g>
         <g transform="translate(364.949 0)">
          <g transform="translate(0 218.045)">
           <g>
            <animateTransform repeatCount="indefinite" calcMode="spline" keyTimes="0;0.0583333;0.216667;0.275;0.325;0.6;0.708333;1" keySplines="0 0 1 1;0 0 1 1;0 0 1 1;0 0 1 1;0 0 1 1;0 0 1 1;0 0 1 1" type="translate" values="-10.1 0;-10.1 0;-11.2182 0;-28.7 0;5.4 0;-10.8196 0;-10.1 0;-10.1 0" attributeName="transform" dur="3.42857s"/>
            <g>
             <animateTransform repeatCount="indefinite" calcMode="spline" keyTimes="0;0.0583333;0.183333;0.216667;0.275;0.325;0.341667;0.6;0.708333;1" keySplines="0 0 1 1;0 0 1 1;0 0 1 1;0 0 1 1;0 0 1 1;0 0 1 1;0 0 1 1;0 0 1 1;0 0 1 1" type="translate" values="0 183;0 183;0 182.9;0 183.5;0 203.8;0 169.5;0 169.3;0 182.8;0 183;0 183" attributeName="transform" dur="3.42857s"/>
             <g>
              <animateTransform repeatCount="indefinite" calcMode="spline" keyTimes="0;0.0583333;0.141667;0.183333;0.6;0.65;0.708333;1" keySplines="0 0 1 1;0 0 1 1;0 0 1 1;0 0.333333 1 0.666667;0 0 1 1;0 0 1 1;0 0 1 1" type="rotate" values="180;180;20;0;0;20;180;180" attributeName="transform" dur="3.42857s"/>
              <g>
               <animateTransform repeatCount="indefinite" calcMode="spline" keyTimes="0;0.0583333;0.141667;0.183333;0.341667;0.6;0.65;0.708333;1" keySplines="0 0 1 1;0 0 1 1;0 0 1 1;0 0.333333 1 0.666667;0 0.333333 1 0.666667;0 0 1 1;0 0 1 1;0 0 1 1" type="scale" values="0 1;0 1;1 1;1.201 1;1.201 1;1.201 1;1 1;0 1;0 1" attributeName="transform" dur="3.42857s"/>
               <g>
                <animateTransform repeatCount="indefinite" calcMode="spline" keyTimes="0;0.0583333;0.141667;0.183333;0.6;0.65;0.708333;1" keySplines="0 0 1 1;0 0 1 1;0 0 1 1;0 0.333333 1 0.666667;0 0 1 1;0 0 1 1;0 0 1 1" type="scale" values="1 0;1 0;1 1;1 1.201;1 1.201;1 1;1 0;1 0" attributeName="transform" dur="3.42857s"/>
                <g transform="skewX(0) skewY(0)">
                 <g transform="translate(-364.949 0)" opacity="1">
                  <g transform="translate(0 -218.045)">
                   <path d="M343.736 161.903C346.725 160.798 348.71 157.949 348.71 154.761C348.743 149.032 348.743 140.879 348.743 140.879C348.743 135.674 344.523 131.454 339.318 131.454C336.699 131.454 333.854 131.454 331.229 131.454C329.632 131.454 328.192 130.492 327.581 129.017C326.969 127.542 327.307 125.843 328.436 124.714C338.083 115.062 355.411 97.725 362.155 90.977C362.896 90.236 363.901 89.82 364.948 89.82C365.996 89.82 367.001 90.236 367.741 90.977C374.486 97.725 391.814 115.062 401.461 124.714C402.59 125.843 402.928 127.542 402.316 129.017C401.705 130.492 400.265 131.454 398.668 131.454C396.043 131.454 393.197 131.454 390.578 131.454C385.373 131.454 381.154 135.674 381.154 140.879C381.154 140.879 381.154 149.032 381.154 154.761C381.154 157.962 383.148 160.824 386.15 161.933C402.227 167.983 415.011 180.767 421.091 196.832C422.196 199.822 425.046 201.808 428.233 201.808C433.963 201.84 442.115 201.84 442.115 201.84C447.32 201.84 451.54 197.621 451.54 192.416C451.54 189.797 451.54 186.951 451.54 184.326C451.54 182.729 452.502 181.289 453.977 180.678C455.453 180.067 457.151 180.404 458.281 181.533C467.932 191.18 485.269 208.509 492.017 215.253C492.758 215.993 493.174 216.998 493.174 218.046C493.174 219.093 492.758 220.098 492.017 220.839C485.269 227.583 467.932 244.911 458.281 254.558C457.151 255.687 455.453 256.025 453.977 255.414C452.502 254.802 451.54 253.362 451.54 251.765C451.54 249.14 451.54 246.295 451.54 243.676C451.54 238.471 447.32 234.251 442.115 234.251C442.115 234.251 433.963 234.251 428.233 234.251C425.032 234.251 422.17 236.245 421.061 239.248C415.011 255.325 402.227 268.109 386.162 274.189C383.172 275.293 381.186 278.143 381.186 281.331C381.154 287.06 381.154 295.213 381.154 295.213C381.154 300.418 385.373 304.637 390.578 304.637C393.197 304.637 396.043 304.637 398.668 304.637C400.265 304.637 401.705 305.599 402.316 307.075C402.928 308.55 402.59 310.248 401.461 311.378C391.814 321.03 374.486 338.367 367.741 345.114C367.001 345.855 365.996 346.271 364.948 346.271C363.901 346.271 362.896 345.855 362.155 345.114C355.411 338.367 338.083 321.03 328.436 311.378C327.307 310.248 326.969 308.55 327.581 307.075C328.192 305.599 329.632 304.637 331.229 304.637C333.854 304.637 336.699 304.637 339.318 304.637C344.523 304.637 348.743 300.418 348.743 295.213C348.743 295.213 348.743 287.06 348.743 281.331C348.743 278.13 346.749 275.268 343.746 274.159C327.622 268.091 314.811 255.25 308.752 239.119C307.653 236.119 304.798 234.125 301.604 234.125C295.889 234.092 287.781 234.092 287.781 234.092C282.576 234.092 278.357 238.312 278.357 243.517C278.357 246.136 278.357 248.982 278.357 251.607C278.357 253.204 277.395 254.644 275.919 255.255C274.444 255.866 272.746 255.529 271.616 254.4C261.964 244.753 244.628 227.424 237.88 220.68C237.139 219.939 236.723 218.935 236.723 217.887C236.723 216.839 237.139 215.835 237.88 215.094C244.628 208.35 261.964 191.022 271.616 181.374C272.746 180.245 274.444 179.908 275.919 180.519C277.395 181.131 278.357 182.57 278.357 184.167C278.357 186.793 278.357 189.638 278.357 192.257C278.357 197.462 282.576 201.682 287.781 201.682C287.781 201.682 295.98 201.682 301.724 201.682C304.917 201.681 307.774 199.696 308.888 196.704C314.961 180.692 327.716 167.966 343.736 161.903ZM364.948 248.049C381.508 248.049 394.952 234.605 394.952 218.046C394.952 201.487 381.508 188.043 364.948 188.043C348.389 188.043 334.945 201.487 334.945 218.046C334.945 234.605 348.389 248.049 364.948 248.049Z" stroke="none" stroke-width="0" fill="#ffffff"/>
                  </g>
                 </g>
                </g>
               </g>
              </g>
             </g>
            </g>
           </g>
          </g>
         </g>
         <g transform="translate(315.816 0)">
          <g transform="translate(0 475.734)">
           <g transform="translate(190.887 0)">
            <g transform="translate(0 76.7505)">
             <g>
              <animateTransform repeatCount="indefinite" calcMode="spline" keyTimes="0;0.183333;0.216667;0.275;0.325;0.6;1" keySplines="0 0 1 1;0 0 1 1;0 0 1 1;0 0 1 1;0 0 1 1;0 0 1 1" type="rotate" values="-45;-45;-45.3;-52.6;-39.5;-45;-45" attributeName="transform" dur="3.42857s"/>
              <g transform="scale(1.00839 1)">
               <g transform="scale(1 4.09633)">
                <g transform="skewX(0) skewY(0)">
                 <g transform="translate(-315.816 0)" opacity="1">
                  <g transform="translate(0 -475.734)">
                   <g>
                    <g transform="translate(315.737 449.34)">
                     <g transform="translate(0 0)">
                      <g transform="rotate(0)">
                       <g transform="scale(1 1)">
                        <g transform="skewX(0) skewY(0)">
                         <g transform="translate(-315.737 -449.34)" opacity="1">
                          <path d="M343.882 423.714C343.882 419.888 331.281 416.786 315.738 416.786L315.737 416.786C300.194 416.786 287.593 419.888 287.593 423.714C287.593 436.226 287.593 462.454 287.593 474.966C287.593 478.792 300.194 481.894 315.737 481.894L315.738 481.894C331.281 481.894 343.882 478.792 343.882 474.966C343.882 462.454 343.882 436.226 343.882 423.714Z" stroke="none" stroke-width="0" fill="#ffffff"/>
                         </g>
                        </g>
                       </g>
                      </g>
                     </g>
                    </g>
                   </g>
                  </g>
                 </g>
                </g>
               </g>
              </g>
             </g>
            </g>
           </g>
          </g>
         </g>
         <g transform="translate(615.122 561.967)">
          <g transform="translate(0 0)">
           <g transform="rotate(0)">
            <g transform="scale(1 1)">
             <g transform="skewX(0) skewY(0)">
              <g transform="translate(-615.122 -561.967)" opacity="1">
               <path d="M719.528 731.308C693.231 748.294 658.645 744.616 636.508 722.48C625.624 711.725 612.053 698.155 603.962 690.063C602.785 688.887 602.433 687.117 603.07 685.579C603.707 684.042 605.207 683.039 606.871 683.039C610.128 683.039 612.928 683.039 612.928 683.039C615.663 683.039 618.357 682.641 620.932 681.877C626.168 681.299 631.582 680.407 636.765 679.392C654.703 675.854 671.183 667.063 684.11 654.135C684.11 654.135 684.11 654.135 684.11 654.135C714.395 623.85 728.265 583.367 725.72 543.744C725.598 542.037 726.55 540.433 728.107 539.721C729.665 539.01 731.5 539.341 732.711 540.552C741.596 549.418 756.189 564.011 768.845 576.667C788.63 596.452 793.92 626.502 782.081 651.854C769.3 679.275 747.79 710.103 723.032 728.862C721.902 729.719 720.732 730.534 719.528 731.308ZM479.125 486.232C469.332 476.798 467.023 461.996 473.476 450.027C474.645 447.924 476.036 446 477.67 444.366C488.654 433.383 506.489 433.383 517.472 444.366C517.472 444.366 521.578 448.472 522.91 449.804C523.157 450.05 523.532 450.113 523.845 449.96C523.845 449.959 523.846 449.959 523.846 449.959C524.309 449.732 524.504 449.176 524.285 448.709C519.507 438.317 521.397 425.602 529.954 417.046C540.938 406.062 558.772 406.062 569.756 417.046C569.756 417.046 575.352 422.642 576.54 423.83C576.671 423.961 576.872 423.994 577.039 423.913C577.039 423.912 577.039 423.912 577.04 423.912C577.259 423.805 577.426 423.613 577.503 423.382C577.58 423.15 577.561 422.897 577.451 422.679C572.208 412.148 573.974 399.006 582.746 390.234C593.73 379.25 611.564 379.25 622.548 390.234C622.548 390.234 641.003 408.688 664.666 432.352C720.54 488.226 720.54 578.816 664.666 634.69C664.666 634.69 664.666 634.69 664.666 634.69C651.738 647.618 635.258 656.41 617.321 659.947C612.137 660.962 606.723 661.854 601.487 662.432C598.913 663.196 596.219 663.594 593.484 663.594C559.801 663.594 503.739 663.594 470.057 663.594C462.592 663.594 455.434 660.629 450.156 655.351C444.878 650.073 441.913 642.915 441.913 635.45C441.913 635.45 441.913 635.45 441.913 635.45C441.913 627.986 444.878 620.827 450.156 615.549C455.434 610.271 462.592 607.306 470.057 607.306C470.057 607.306 491.873 607.306 507.01 607.306C509.388 607.306 511.532 605.873 512.442 603.676C513.352 601.479 512.849 598.95 511.167 597.269C501.903 588.004 489.571 575.673 489.571 575.673C482.614 568.716 478.706 559.28 478.706 549.442C478.706 539.603 482.614 530.168 489.571 523.211L503.142 509.64L496.354 502.852C496.354 502.852 486.373 493.224 479.125 486.232Z" stroke="none" stroke-width="0" fill="#ffffff"/>
              </g>
             </g>
            </g>
           </g>
          </g>
         </g>
        </g>
       </g>
      </g>
     </g>
    </g>
   </g>
  </g>
 </g>
 <defs/>
</svg>
