<?xml version="1.0" encoding="UTF-8" standalone="no"?>
<!-- https://cristalix.ru/ -->
<!DOCTYPE svg PUBLIC "-//W3C//DTD SVG 1.1//EN" "http://www.w3.org/Graphics/SVG/1.1/DTD/svg11.dtd">
<svg width="100%" height="100%" viewBox="0 0 1000 1000" version="1.1" xmlns="http://www.w3.org/2000/svg" xmlns:xlink="http://www.w3.org/1999/xlink" xml:space="preserve" xmlns:serif="http://www.serif.com/" style="fill-rule:evenodd;clip-rule:evenodd;stroke-linejoin:round;stroke-miterlimit:2;">
    <path d="M535.8,709.128C528.179,690.283 509.885,677.948 489.558,677.948L310.69,677.948C290.363,677.948 272.068,690.283 264.447,709.128C258.058,724.927 250.321,744.058 243.932,759.857C236.311,778.702 218.017,791.037 197.689,791.037C148.664,791.037 63.353,791.037 63.353,791.037C63.353,791.037 254.764,357.42 307.17,238.701C315.149,220.625 333.045,208.963 352.803,208.963C381.048,208.963 421.749,208.963 449.982,208.963C469.719,208.963 487.599,220.6 495.591,238.646C548.132,357.287 740.221,791.037 740.221,791.037L602.558,791.037C582.231,791.037 563.937,778.702 556.316,759.857C549.927,744.058 542.19,724.927 535.8,709.128ZM936.647,354.967L936.647,773.949C936.647,783.386 928.997,791.037 919.559,791.037L830.39,791.037C825.858,791.037 821.511,789.236 818.307,786.032C815.102,782.827 813.302,778.481 813.302,773.949L813.302,461.258C813.302,458.347 812.145,455.554 810.086,453.495C808.027,451.436 805.235,450.28 802.323,450.28L741.161,450.28C736.277,450.28 732.317,446.32 732.317,441.436C732.317,423.277 732.317,381.97 732.317,363.811C732.317,358.927 736.277,354.967 741.161,354.967C780.376,354.967 936.647,354.967 936.647,354.967ZM401.164,556.544C417.729,556.544 433.214,548.321 442.49,534.596C451.767,520.872 453.624,503.438 447.449,488.067C426.103,434.94 400.124,370.281 400.124,370.281C400.124,370.281 374.145,434.94 352.799,488.067C346.623,503.438 348.481,520.872 357.758,534.596C367.034,548.321 382.519,556.544 399.084,556.544L401.164,556.544Z" style="fill:#000;"fill-rule:nonzero;"/>
</svg>
