<?xml version="1.0" encoding="UTF-8" standalone="no"?>
<!DOCTYPE svg PUBLIC "-//W3C//DTD SVG 1.1//EN" "http://www.w3.org/Graphics/SVG/1.1/DTD/svg11.dtd">
<svg width="100%" height="100%" viewBox="0 0 1000 1000" version="1.1" xmlns="http://www.w3.org/2000/svg" xmlns:xlink="http://www.w3.org/1999/xlink" xml:space="preserve" xmlns:serif="http://www.serif.com/" style="fill-rule:evenodd;clip-rule:evenodd;stroke-linejoin:round;stroke-miterlimit:2;">
    <path d="M282.618,203.275C286.11,206.315 290.966,207.245 295.335,205.71C299.703,204.175 302.91,200.413 303.733,195.856C306.752,179.15 310.843,156.502 313.74,140.469C316.022,127.834 324.583,117.231 336.454,112.336C441.183,69.18 558.796,69.18 663.518,112.355C675.382,117.247 683.938,127.844 686.22,140.473C689.136,156.502 693.228,179.15 696.246,195.856C697.069,200.413 700.276,204.175 704.644,205.71C709.013,207.245 713.869,206.315 717.361,203.275C724.425,197.125 732.237,190.325 737.757,185.519C742.038,181.791 748.358,181.613 752.843,185.092C760.488,191.066 767.923,197.305 775.13,203.801C779.334,207.612 780.256,213.864 777.33,218.725C771.479,228.456 761.823,244.499 755.936,254.28C752.97,259.21 753.636,265.51 757.568,269.71C765.668,278.418 773.298,287.517 780.439,296.96C783.891,301.56 789.978,303.309 795.345,301.244C806.004,297.152 823.481,290.429 834.078,286.352C839.375,284.314 845.375,286.308 848.4,291.111C853.541,299.34 858.393,307.745 862.944,316.314C865.591,321.333 864.319,327.523 859.907,331.091C851.08,338.233 836.52,350.007 827.642,357.185C823.167,360.804 821.638,366.953 823.898,372.246C828.513,383.15 832.577,394.306 836.073,405.672C837.744,411.175 842.865,414.9 848.615,414.795C860.029,414.595 878.75,414.255 890.102,414.048C895.778,413.945 900.733,417.871 901.932,423.419C903.95,432.909 905.635,442.468 906.98,452.077C907.751,457.698 904.438,463.08 899.072,464.923C892.151,467.305 882.356,470.67 873.498,473.713C869.119,475.217 865.886,478.957 865.031,483.508C864.176,488.058 865.831,492.717 869.366,495.708C882.325,506.676 899.892,521.543 912.329,532.067C922.13,540.362 927.033,553.077 925.336,565.805C910.345,678.082 851.539,779.937 761.787,849.041C751.619,856.87 738.163,858.981 726.086,854.643C710.746,849.154 689.087,841.374 673.109,835.634C668.752,834.069 663.889,834.965 660.376,837.981C656.863,840.996 655.24,845.667 656.127,850.211C657.921,859.404 659.904,869.569 661.306,876.753C662.394,882.324 659.389,887.886 654.133,890.031C645.136,893.665 636.016,896.984 626.787,899.978C621.385,901.713 615.509,899.385 612.762,894.42C607.261,884.488 598.195,868.105 592.667,858.116C589.881,853.082 584.092,850.509 578.489,851.814C566.898,854.474 555.203,856.533 543.454,857.996C537.744,858.686 533.186,863.082 532.291,868.763C530.505,880.039 527.589,898.536 525.821,909.752C524.938,915.359 520.211,919.558 514.539,919.776C504.842,920.114 495.137,920.114 485.44,919.77C479.77,919.553 475.046,915.356 474.162,909.751C472.39,898.536 469.474,880.04 467.696,868.762C466.8,863.077 462.239,858.679 456.526,857.989C444.775,856.534 433.081,854.475 421.489,851.82C415.888,850.516 410.103,853.088 407.318,858.12C401.784,868.105 392.718,884.488 387.221,894.423C384.473,899.39 378.595,901.719 373.191,899.983C363.963,896.984 354.843,893.665 345.849,890.025C340.595,887.882 337.591,882.322 338.678,876.753C340.075,869.569 342.058,859.404 343.852,850.211C344.739,845.667 343.116,840.996 339.603,837.981C336.09,834.965 331.227,834.069 326.87,835.634C310.892,841.374 289.233,849.154 273.9,854.662C261.816,859.003 248.353,856.891 238.179,849.058C148.44,779.937 89.634,678.082 74.664,565.802C72.968,553.082 77.867,540.373 87.663,532.083C100.087,521.543 117.654,506.676 130.614,495.708C134.148,492.717 135.803,488.058 134.948,483.508C134.093,478.957 130.86,475.217 126.481,473.713C117.623,470.67 107.828,467.305 100.906,464.927C95.537,463.084 92.222,457.7 92.993,452.076C94.344,442.468 96.03,432.909 98.052,423.42C99.25,417.874 104.204,413.95 109.877,414.053C121.229,414.255 139.95,414.595 151.365,414.803C157.118,414.907 162.241,411.181 163.913,405.675C167.403,394.306 171.468,383.149 176.075,372.243C178.333,366.953 176.805,360.808 172.333,357.191C163.46,350.007 148.899,338.233 140.07,331.094C135.655,327.526 134.382,321.333 137.03,316.312C141.586,307.745 146.439,299.34 151.584,291.114C154.607,286.312 160.604,284.319 165.9,286.357C176.499,290.429 193.975,297.152 204.631,301.251C210.002,303.317 216.092,301.567 219.545,296.964C226.681,287.515 234.311,278.417 242.406,269.706C246.336,265.508 247.001,259.211 244.036,254.284C238.156,244.498 228.5,228.456 222.645,218.728C219.718,213.864 220.639,207.609 224.845,203.797C232.056,197.305 239.491,191.066 247.14,185.097C251.623,181.618 257.94,181.797 262.219,185.522C267.743,190.325 275.554,197.125 282.618,203.275ZM499.988,199.012C672.027,199.012 811.7,338.685 811.7,510.724C811.7,682.762 672.027,822.436 499.988,822.436C327.95,822.436 188.276,682.762 188.276,510.724C188.276,338.685 327.95,199.012 499.988,199.012ZM499.988,232.335C653.635,232.335 778.377,357.077 778.377,510.724C778.377,664.371 653.635,789.112 499.988,789.112C346.341,789.112 221.599,664.371 221.599,510.724C221.599,357.077 346.341,232.335 499.988,232.335ZM270.433,469.034C270.179,467.855 269.125,467.022 267.92,467.046C266.714,467.071 265.695,467.947 265.489,469.136C263.335,481.944 262.222,495.099 262.222,508.512C262.222,611.235 327.505,698.831 418.816,732.04C419.963,732.444 421.234,731.976 421.845,730.925C422.455,729.874 422.232,728.537 421.313,727.742C396.213,705.807 380.347,673.562 380.347,637.64C380.347,609.54 390.056,583.689 406.296,563.265C406.706,562.759 406.762,562.053 406.438,561.489C406.113,560.924 405.475,560.617 404.832,560.716C399.045,561.575 393.119,562.022 387.09,562.022C330.218,562.022 282.561,522.255 270.433,469.034ZM734.505,469.133C734.297,467.938 733.272,467.058 732.06,467.033C730.847,467.008 729.787,467.846 729.531,469.031C717.418,522.255 669.761,562.022 612.889,562.022C606.86,562.022 600.934,561.575 595.148,560.714C594.503,560.614 593.864,560.922 593.54,561.487C593.215,562.053 593.271,562.76 593.681,563.267C609.924,583.689 619.632,609.54 619.632,637.64C619.632,673.562 603.766,705.807 578.668,727.744C577.75,728.538 577.526,729.874 578.136,730.924C578.746,731.973 580.017,732.441 581.162,732.037C672.474,698.831 737.757,611.235 737.757,508.512C737.757,495.099 736.644,481.944 734.505,469.133ZM499.99,577.819C533.006,577.819 559.811,604.623 559.811,637.64C559.811,670.656 533.006,697.461 499.99,697.461C466.973,697.461 440.168,670.656 440.168,637.64C440.168,604.623 466.973,577.819 499.99,577.819ZM387.09,382.559C420.106,382.559 446.911,409.364 446.911,442.38C446.911,475.396 420.106,502.201 387.09,502.201C354.074,502.201 327.269,475.396 327.269,442.38C327.269,409.364 354.074,382.559 387.09,382.559ZM612.889,382.559C645.905,382.559 672.71,409.364 672.71,442.38C672.71,475.396 645.905,502.201 612.889,502.201C579.873,502.201 553.068,475.396 553.068,442.38C553.068,409.364 579.873,382.559 612.889,382.559ZM646.536,327.542C647.686,327.893 648.924,327.383 649.494,326.323C650.063,325.264 649.806,323.95 648.879,323.184C608.128,290.386 556.334,270.745 499.99,270.745C443.645,270.745 391.852,290.386 351.098,323.181C350.17,323.948 349.913,325.264 350.483,326.324C351.053,327.385 352.292,327.896 353.444,327.546C364.118,324.415 375.41,322.738 387.09,322.738C437.733,322.738 481.068,354.27 498.517,398.756C498.751,399.365 499.337,399.766 499.989,399.766C500.642,399.766 501.227,399.364 501.461,398.755C518.911,354.27 562.247,322.738 612.889,322.738C624.569,322.738 635.861,324.415 646.536,327.542Z"/>
</svg>
