<?xml version="1.0" encoding="UTF-8" standalone="no"?>
<!DOCTYPE svg PUBLIC "-//W3C//DTD SVG 1.1//EN" "http://www.w3.org/Graphics/SVG/1.1/DTD/svg11.dtd">
<svg width="100%" height="100%" viewBox="0 0 1200 1200" version="1.1" xmlns="http://www.w3.org/2000/svg" xmlns:xlink="http://www.w3.org/1999/xlink" xml:space="preserve" xmlns:serif="http://www.serif.com/" style="fill-rule:evenodd;clip-rule:evenodd;stroke-linejoin:round;stroke-miterlimit:1.41421;">
    <g id="Монтажная-область1" serif:id="Монтажная область1" transform="matrix(1,0,0,1,-150,-150)">
        <rect x="150" y="150" width="1200" height="1200" style="fill:none;"/>
        <g transform="matrix(1,0,0,1,-9.79647,8.1122)">
            <path d="M648.611,408.864C655.497,449.377 659.304,477.574 643.663,497.647L628.159,515.384C607.728,524.6 588.951,531.688 571.765,542.339C556.955,551.517 531.064,571.115 519.288,582.521C316.693,778.747 451.526,1127.22 737.116,1122.86C1004.06,1118.79 1121.36,837.746 1003.83,644.504C965.954,567.12 982.586,486.04 1047.53,485.681C1049.51,485.67 1055.45,485.203 1059.76,484.575C1062.67,484.149 1064.64,483.478 1064.89,483.48C1022.34,448.464 954.489,459.553 878.055,522.621L879.247,518.299C898.28,487.632 909.949,453.834 914.042,419.262C919.448,373.596 907.577,320.466 892.201,282.144C873.099,234.538 845.728,205.972 805.779,198.196C846.087,255.357 862.71,319.274 838.146,371.758C830.627,387.822 818.743,401.094 802.928,414.41C791.199,424.284 777.309,434.71 761.433,443.55L750,420.451C748.122,419.983 745.816,417.767 743.934,417.371C700.431,408.224 666.527,355.054 706.176,310.213L692.195,310.358C670.121,335.88 650.445,361.638 648.753,389.165L648.611,408.864ZM542.73,886.879L523.813,813.239L514.064,726.111C466.593,868.07 513.494,966.907 641.489,1031.96C606.678,992.932 571.042,945.409 542.73,886.879ZM860.916,974.407C854.048,987.6 826.957,1009.99 794.646,1012.23C773.548,1014.78 757.417,1009.07 742.948,1000.26C806.186,1002.67 837.668,986.028 860.239,964.04L860.916,974.407Z" style="fill:white;"/>
            <path d="M264.321,743.137C263.326,712.878 272.826,687.152 283.896,668.508C268.061,681.161 254.145,700.604 244.771,723.556C236.225,735.781 233.828,767.777 233.112,802.986L236.419,841.413L249.226,873.922C265.853,953.24 305.036,1023.62 354.328,1090C298.386,1050.28 265.748,982.021 243.505,903.791C248.616,987.703 264.964,1049.28 306.66,1098.53C359.865,1131.15 414.942,1160.49 475.856,1179.62C513.445,1192.07 550.847,1203.19 609.015,1208.04L668.839,1207.66C606.987,1177.87 543.226,1139.49 474.149,1077.19C425.69,1024.84 388.433,960.271 366.451,879.038C342.713,832.529 316.297,786.922 343.282,723.339C300.183,754.594 304.523,823.553 319.927,877.152C274.597,833.745 263.77,798.109 273.16,767.025C277.744,749.532 284.687,733.3 293.059,719.088C287.982,720.274 280.171,730.672 269.542,746.496C268.567,745.76 267.643,744.88 268.861,737.982C267.396,738.586 265.889,740.156 264.321,743.137Z" style="fill:white;"/>
            <path d="M1110.11,925.914C1086.67,993.273 1037.22,1058.88 966.098,1109.55C886.659,1166.13 784.534,1204.63 750,1217.45C798.526,1246.84 917.734,1289.61 971.078,1285.28C1008.83,1284.36 1042.66,1275.61 1073.39,1260.67C1109.56,1241.1 1140.4,1215.44 1159.32,1192.79C1195.03,1161.77 1219.74,1100.02 1229.27,1071.66C1261.85,988.436 1278.44,909.32 1286.48,832.404C1286.04,768.73 1282.63,707.673 1269.46,655.227C1250.87,631.2 1233.81,624.033 1217.46,624.689C1239.19,645.487 1254.44,669.49 1251.13,701.976C1242.59,742.105 1221.71,784.543 1193.41,821.683C1190.35,767.892 1191.9,716.554 1221.89,680.347C1195.45,702.561 1177.71,727.261 1165.98,753.681C1139.09,699.837 1107.16,678.877 1076.05,677.629C1117.98,728.17 1130.28,790.938 1128.03,859.71C1127.02,920.648 1118.91,972.234 1102.48,1012.84C1064.08,1097.87 1025.05,1131.34 987.812,1158.61C1080.81,1052.61 1109.45,981.652 1110.11,925.914Z" style="fill:white;"/>
        </g>
    </g>
</svg>
